sim/tests/or/streamwave.vcd
$date
	Wed Feb 25 17:25:47 2026
$end
$version
	Icarus Verilog
$end
$timescale
	1ps
$end
$scope module userlogic_test $end
$var wire 2 ! ul_write_en_lo [1:0] $end
$var wire 2 " ul_write_en_hi [1:0] $end
$var wire 16 # ul_write_data_lo [15:0] $end
$var wire 16 $ ul_write_data_hi [15:0] $end
$var wire 32 % ul_write_data [31:0] $end
$var wire 32 & ul_write_addr [31:0] $end
$var wire 32 ' ul_test [31:0] $end
$var wire 32 ( ul_status [31:0] $end
$var wire 32 ) ul_read_data [31:0] $end
$var wire 32 * ul_read_addr [31:0] $end
$var wire 32 + ul_instr_addr [31:0] $end
$var wire 32 , ul_instr [31:0] $end
$var wire 15 - output_buffer_addr [14:0] $end
$var wire 15 . input_buffer_addr [14:0] $end
$var wire 32 / data_out [31:0] $end
$var parameter 32 0 ADDR_WIDTH $end
$var parameter 32 1 AXIS_DWIDTH $end
$var parameter 32 2 BUF_SIZE $end
$var reg 1 3 clk $end
$var reg 32 4 cycle_count [32:1] $end
$var reg 8192 5 dump_vars_filename [8192:1] $end
$var reg 10 6 image_n_columns [9:0] $end
$var reg 10 7 image_n_rows [9:0] $end
$var reg 8192 8 input_buffer_filename [8192:1] $end
$var reg 8192 9 instr_mem_filename [8192:1] $end
$var reg 32 : num_cycles [32:1] $end
$var reg 33 ; out_end_addr [32:0] $end
$var reg 33 < out_start_addr [32:0] $end
$var reg 8192 = output_buffer_filename [8192:1] $end
$var reg 15 > read_addr [14:0] $end
$var reg 1 ? rst_n $end
$var reg 8192 @ test_result_filename [8192:1] $end
$var reg 32 A ul_command [31:0] $end
$var integer 32 B dump_vars [31:0] $end
$var integer 32 C i [31:0] $end
$var integer 32 D outfile [31:0] $end
$var integer 32 E read_input_buffer [31:0] $end
$var integer 32 F read_instr_mem [31:0] $end
$var integer 32 G result [31:0] $end
$var integer 32 H write_output_buffer [31:0] $end
$var integer 32 I write_test_result [31:0] $end
$scope module input_buffer $end
$var wire 15 J addr [14:0] $end
$var wire 1 3 clk $end
$var wire 32 K din [31:0] $end
$var wire 1 L we $end
$var parameter 32 M AWIDTH $end
$var parameter 32 N DWIDTH $end
$var parameter 32 O SIZE $end
$var reg 32 P dout [31:0] $end
$upscope $end
$scope module instr_mem $end
$var wire 14 Q addr [13:0] $end
$var wire 1 3 clk $end
$var wire 32 R din [31:0] $end
$var wire 1 S we $end
$var parameter 32 T AWIDTH $end
$var parameter 32 U DWIDTH $end
$var parameter 32 V SIZE $end
$var reg 32 W dout [31:0] $end
$upscope $end
$scope module output_buffer $end
$var wire 15 X addr [14:0] $end
$var wire 1 3 clk $end
$var wire 32 Y din [31:0] $end
$var wire 4 Z we [3:0] $end
$var parameter 32 [ ADDR_WIDTH $end
$var parameter 32 \ COL_WIDTH $end
$var parameter 64 ] DATA_WIDTH $end
$var parameter 32 ^ N_COLS $end
$var parameter 47 _ RAM_DEPTH $end
$var reg 32 ` dout [31:0] $end
$scope begin column[0] $end
$var parameter 2 a c $end
$upscope $end
$scope begin column[1] $end
$var parameter 2 b c $end
$upscope $end
$scope begin column[2] $end
$var parameter 3 c c $end
$upscope $end
$scope begin column[3] $end
$var parameter 3 d c $end
$upscope $end
$upscope $end
$scope module ul $end
$var wire 1 e addr_local $end
$var wire 1 3 clk $end
$var wire 32 f command [31:0] $end
$var wire 32 g instr [31:0] $end
$var wire 16 h read_data_hi [15:0] $end
$var wire 16 i read_data_lo [15:0] $end
$var wire 1 ? rst_n $end
$var wire 32 j status [31:0] $end
$var wire 32 k test [31:0] $end
$var wire 2 l write_en_hi [1:0] $end
$var wire 2 m write_en_lo [1:0] $end
$var wire 16 n write_data_lo [15:0] $end
$var wire 16 o write_data_hi [15:0] $end
$var wire 32 p write_data [31:0] $end
$var wire 32 q write_addr_lo [31:0] $end
$var wire 32 r write_addr_hi [31:0] $end
$var wire 32 s read_data [31:0] $end
$var wire 32 t read_addr_lo [31:0] $end
$var wire 32 u read_addr_hi [31:0] $end
$var wire 4 v mips_write_en [3:0] $end
$var wire 1 w mips_read_en $end
$var wire 32 x mips_read_data [31:0] $end
$var wire 32 y mips_pc [31:0] $end
$var wire 32 z mips_local_read_data [31:0] $end
$var wire 32 { mips_addr [31:0] $end
$var wire 32 | instr_addr [31:0] $end
$var wire 1 } addr_test $end
$var wire 1 ~ addr_status $end
$var wire 1 !" addr_iobuf $end
$var wire 1 "" addr_cmd $end
$var parameter 32 #" ADDR_WIDTH $end
$var parameter 32 $" AXIS_DWIDTH $end
$var parameter 32 %" BUF_SIZE $end
$var parameter 32 &" LOCAL_ADDR_WIDTH $end
$var parameter 32 '" LOCAL_DATA_WIDTH $end
$var reg 32 (" cmd_d [31:0] $end
$var reg 1 )" read_cmd_d $end
$var reg 1 *" read_iobuf_d $end
$var reg 32 +" status_reg [31:0] $end
$var reg 32 ," test_reg [31:0] $end
$scope module cpu $end
$var wire 32 -" alu_sc_result_ex [31:0] $end
$var wire 1 ." atomic_en $end
$var wire 1 3 clk $end
$var wire 1 /" en $end
$var wire 1 0" en_if $end
$var wire 32 1" instr [31:0] $end
$var wire 32 2" mem_addr [31:0] $end
$var wire 32 3" mem_read_data [31:0] $end
$var wire 1 w mem_read_en $end
$var wire 32 4" pc [31:0] $end
$var wire 1 5" reg_we_ex $end
$var wire 1 6" rst $end
$var wire 1 7" rst_id $end
$var wire 1 8" stall_r $end
$var wire 1 9" stall $end
$var wire 32 :" sc_result [31:0] $end
$var wire 32 ;" rt_data_id [31:0] $end
$var wire 5 <" rt_addr_id [4:0] $end
$var wire 32 =" rs_data_id [31:0] $end
$var wire 5 >" rs_addr_id [4:0] $end
$var wire 32 ?" reg_write_data_wb [31:0] $end
$var wire 32 @" reg_write_data_mem [31:0] $end
$var wire 5 A" reg_write_addr_wb [4:0] $end
$var wire 5 B" reg_write_addr_mem [4:0] $end
$var wire 5 C" reg_write_addr_id [4:0] $end
$var wire 5 D" reg_write_addr_ex [4:0] $end
$var wire 1 E" reg_we_wb $end
$var wire 1 F" reg_we_mem $end
$var wire 1 G" reg_we_id $end
$var wire 1 H" reg_we_cond_ex $end
$var wire 32 I" pc_if [31:0] $end
$var wire 32 J" pc_id [31:0] $end
$var wire 1 K" movz_id $end
$var wire 1 L" movz_ex $end
$var wire 1 M" movn_id $end
$var wire 1 N" movn_ex $end
$var wire 4 O" mem_write_en [3:0] $end
$var wire 32 P" mem_write_data_id [31:0] $end
$var wire 32 Q" mem_write_data_ex [31:0] $end
$var wire 32 R" mem_write_data [31:0] $end
$var wire 1 S" mem_we_id $end
$var wire 1 T" mem_we_ex $end
$var wire 1 U" mem_signextend_mem $end
$var wire 1 V" mem_signextend_id $end
$var wire 1 W" mem_signextend_ex $end
$var wire 1 X" mem_sc_mask_id $end
$var wire 1 Y" mem_sc_id $end
$var wire 1 Z" mem_sc_ex $end
$var wire 1 [" mem_read_mem $end
$var wire 1 \" mem_read_id $end
$var wire 1 ]" mem_read_ex $end
$var wire 16 ^" mem_read_data_half_select [15:0] $end
$var wire 32 _" mem_read_data_half_extend [31:0] $end
$var wire 8 `" mem_read_data_byte_select [7:0] $end
$var wire 32 a" mem_read_data_byte_extend [31:0] $end
$var wire 32 b" mem_out [31:0] $end
$var wire 1 c" mem_half_mem $end
$var wire 1 d" mem_half_id $end
$var wire 1 e" mem_half_ex $end
$var wire 1 f" mem_byte_mem $end
$var wire 1 g" mem_byte_id $end
$var wire 1 h" mem_byte_ex $end
$var wire 1 i" mem_atomic_id $end
$var wire 1 j" mem_atomic_ex $end
$var wire 1 k" jump_target_id $end
$var wire 1 l" jump_reg_id $end
$var wire 1 m" jump_branch_id $end
$var wire 32 n" jr_pc_id [31:0] $end
$var wire 32 o" instr_sav [31:0] $end
$var wire 30 p" instr_number_id [29:0] $end
$var wire 32 q" instr_id [31:0] $end
$var wire 32 r" alu_result_mem [31:0] $end
$var wire 32 s" alu_result_ex [31:0] $end
$var wire 1 t" alu_overflow $end
$var wire 4 u" alu_opcode_id [3:0] $end
$var wire 4 v" alu_opcode_ex [3:0] $end
$var wire 1 w" alu_op_y_zero_ex $end
$var wire 32 x" alu_op_y_id [31:0] $end
$var wire 32 y" alu_op_y_ex [31:0] $end
$var wire 32 z" alu_op_x_id [31:0] $end
$var wire 32 {" alu_op_x_ex [31:0] $end
$scope module alu_op_x_id2ex $end
$var wire 1 6" ar $end
$var wire 1 3 clk $end
$var wire 1 /" en $end
$var wire 1 7" r $end
$var wire 32 |" d [31:0] $end
$var parameter 32 }" WIDTH $end
$var reg 32 ~" q [31:0] $end
$upscope $end
$scope module alu_op_y_id2ex $end
$var wire 1 6" ar $end
$var wire 1 3 clk $end
$var wire 1 /" en $end
$var wire 1 7" r $end
$var wire 32 !# d [31:0] $end
$var parameter 32 "# WIDTH $end
$var reg 32 ## q [31:0] $end
$upscope $end
$scope module alu_opcode_id2ex $end
$var wire 1 6" ar $end
$var wire 1 3 clk $end
$var wire 1 /" en $end
$var wire 1 7" r $end
$var wire 4 $# d [3:0] $end
$var parameter 32 %# WIDTH $end
$var reg 4 &# q [3:0] $end
$upscope $end
$scope module alu_result_ex2mem $end
$var wire 1 3 clk $end
$var wire 32 '# d [31:0] $end
$var wire 1 /" en $end
$var wire 1 6" r $end
$var parameter 32 (# WIDTH $end
$var reg 32 )# q [31:0] $end
$upscope $end
$scope module atomic $end
$var wire 1 6" ar $end
$var wire 1 3 clk $end
$var wire 1 ." en $end
$var wire 1 7" r $end
$var wire 1 i" d $end
$var parameter 32 *# WIDTH $end
$var reg 1 j" q $end
$upscope $end
$scope module d_stage $end
$var wire 1 j" atomic_ex $end
$var wire 32 +# instr [31:0] $end
$var wire 1 ,# isBGEZAL $end
$var wire 1 -# isBGEZNL $end
$var wire 1 .# isBGTZ $end
$var wire 1 /# isBLEZ $end
$var wire 1 0# isBLTZAL $end
$var wire 1 1# isBLTZNL $end
$var wire 1 2# isBranchLink $end
$var wire 1 3# isJALR $end
$var wire 1 4# isJR $end
$var wire 1 5# isSLL $end
$var wire 1 6# isSLLV $end
$var wire 1 7# isSRA $end
$var wire 1 8# isSRAV $end
$var wire 1 9# isSRL $end
$var wire 1 :# isSRLV $end
$var wire 1 ;# isShift $end
$var wire 1 <# isShiftImm $end
$var wire 1 =# isZeroExtImm $end
$var wire 32 ># jr_pc [31:0] $end
$var wire 1 l" jump_reg $end
$var wire 1 k" jump_target $end
$var wire 1 X" mem_sc_mask_id $end
$var wire 32 ?# mem_write_data [31:0] $end
$var wire 1 5" reg_we_ex $end
$var wire 32 @# reg_write_data_mem [31:0] $end
$var wire 1 9" stall $end
$var wire 1 A# use_imm $end
$var wire 32 B# shift_amount [31:0] $end
$var wire 5 C# shamt [4:0] $end
$var wire 32 D# rt_data_in [31:0] $end
$var wire 32 E# rt_data [31:0] $end
$var wire 5 F# rt_addr [4:0] $end
$var wire 1 G# rs_mem_dependency $end
$var wire 32 H# rs_data_in [31:0] $end
$var wire 32 I# rs_data [31:0] $end
$var wire 5 J# rs_addr [4:0] $end
$var wire 5 K# reg_write_addr_mem [4:0] $end
$var wire 5 L# reg_write_addr_ex [4:0] $end
$var wire 5 M# reg_write_addr [4:0] $end
$var wire 1 F" reg_we_mem $end
$var wire 1 G" reg_we $end
$var wire 1 N# read_from_rt $end
$var wire 1 O# read_from_rs $end
$var wire 5 P# rd_addr [4:0] $end
$var wire 32 Q# pc_plus_8 [31:0] $end
$var wire 32 R# pc [31:0] $end
$var wire 6 S# op [5:0] $end
$var wire 1 K" movz $end
$var wire 1 M" movn $end
$var wire 1 S" mem_we $end
$var wire 1 V" mem_signextend $end
$var wire 1 Y" mem_sc_id $end
$var wire 1 ]" mem_read_ex $end
$var wire 1 \" mem_read $end
$var wire 1 d" mem_half $end
$var wire 1 g" mem_byte $end
$var wire 1 m" jump_branch $end
$var wire 1 T# isLUI $end
$var wire 1 U# isJAL $end
$var wire 1 V# isJ $end
$var wire 1 W# isEqual $end
$var wire 1 X# isBNE $end
$var wire 1 Y# isBEQ $end
$var wire 1 Z# isALUImm $end
$var wire 16 [# immediate [15:0] $end
$var wire 32 \# imm_zero_extend [31:0] $end
$var wire 32 ]# imm_upper [31:0] $end
$var wire 32 ^# imm_sign_extend [31:0] $end
$var wire 32 _# imm [31:0] $end
$var wire 6 `# funct [5:0] $end
$var wire 1 a# forward_rt_mem $end
$var wire 1 b# forward_rt_ex $end
$var wire 1 c# forward_rs_mem $end
$var wire 1 d# forward_rs_ex $end
$var wire 1 i" atomic_id $end
$var wire 32 e# alu_result_ex [31:0] $end
$var wire 32 f# alu_op_y [31:0] $end
$var wire 32 g# alu_op_x [31:0] $end
$var reg 4 h# alu_opcode [3:0] $end
$upscope $end
$scope module if_stage $end
$var wire 1 3 clk $end
$var wire 1 0" en $end
$var wire 26 i# instr_id [25:0] $end
$var wire 32 j# jr_pc [31:0] $end
$var wire 1 m" jump_branch $end
$var wire 1 l" jump_reg $end
$var wire 1 k" jump_target $end
$var wire 1 6" rst $end
$var wire 32 k# pc_next [31:0] $end
$var wire 32 l# pc_id_p4 [31:0] $end
$var wire 32 m# pc_id [31:0] $end
$var wire 32 n# pc [31:0] $end
$var wire 32 o# j_addr [31:0] $end
$var wire 32 p# branch_target [31:0] $end
$scope module pc_reg $end
$var wire 1 3 clk $end
$var wire 32 q# d [31:0] $end
$var wire 1 0" en $end
$var wire 1 6" r $end
$var parameter 32 r# WIDTH $end
$var reg 32 s# q [31:0] $end
$upscope $end
$upscope $end
$scope module instr_sav_dff $end
$var wire 1 3 clk $end
$var wire 32 t# d [31:0] $end
$var wire 1 /" en $end
$var wire 1 6" r $end
$var parameter 32 u# WIDTH $end
$var reg 32 v# q [31:0] $end
$upscope $end
$scope module mem_byte_ex2mem $end
$var wire 1 3 clk $end
$var wire 1 /" en $end
$var wire 1 6" r $end
$var wire 1 h" d $end
$var parameter 32 w# WIDTH $end
$var reg 1 f" q $end
$upscope $end
$scope module mem_byte_id2ex $end
$var wire 1 6" ar $end
$var wire 1 3 clk $end
$var wire 1 g" d $end
$var wire 1 /" en $end
$var wire 1 7" r $end
$var parameter 32 x# WIDTH $end
$var reg 1 h" q $end
$upscope $end
$scope module mem_half_ex2mem $end
$var wire 1 3 clk $end
$var wire 1 /" en $end
$var wire 1 6" r $end
$var wire 1 e" d $end
$var parameter 32 y# WIDTH $end
$var reg 1 c" q $end
$upscope $end
$scope module mem_half_id2ex $end
$var wire 1 6" ar $end
$var wire 1 3 clk $end
$var wire 1 d" d $end
$var wire 1 /" en $end
$var wire 1 7" r $end
$var parameter 32 z# WIDTH $end
$var reg 1 e" q $end
$upscope $end
$scope module mem_read_ex2mem $end
$var wire 1 3 clk $end
$var wire 1 /" en $end
$var wire 1 6" r $end
$var wire 1 ]" d $end
$var parameter 32 {# WIDTH $end
$var reg 1 [" q $end
$upscope $end
$scope module mem_read_id2ex $end
$var wire 1 6" ar $end
$var wire 1 3 clk $end
$var wire 1 \" d $end
$var wire 1 /" en $end
$var wire 1 7" r $end
$var parameter 32 |# WIDTH $end
$var reg 1 ]" q $end
$upscope $end
$scope module mem_signextend_ex2mem $end
$var wire 1 3 clk $end
$var wire 1 /" en $end
$var wire 1 6" r $end
$var wire 1 W" d $end
$var parameter 32 }# WIDTH $end
$var reg 1 U" q $end
$upscope $end
$scope module mem_signextend_id2ex $end
$var wire 1 6" ar $end
$var wire 1 3 clk $end
$var wire 1 V" d $end
$var wire 1 /" en $end
$var wire 1 7" r $end
$var parameter 32 ~# WIDTH $end
$var reg 1 W" q $end
$upscope $end
$scope module mem_we_id2ex $end
$var wire 1 6" ar $end
$var wire 1 3 clk $end
$var wire 1 !$ d $end
$var wire 1 /" en $end
$var wire 1 7" r $end
$var parameter 32 "$ WIDTH $end
$var reg 1 T" q $end
$upscope $end
$scope module mem_write_data_id2ex $end
$var wire 1 6" ar $end
$var wire 1 3 clk $end
$var wire 32 #$ d [31:0] $end
$var wire 1 /" en $end
$var wire 1 7" r $end
$var parameter 32 $$ WIDTH $end
$var reg 32 %$ q [31:0] $end
$upscope $end
$scope module movn $end
$var wire 1 6" ar $end
$var wire 1 3 clk $end
$var wire 1 M" d $end
$var wire 1 /" en $end
$var wire 1 7" r $end
$var parameter 32 &$ WIDTH $end
$var reg 1 N" q $end
$upscope $end
$scope module movz $end
$var wire 1 6" ar $end
$var wire 1 3 clk $end
$var wire 1 K" d $end
$var wire 1 /" en $end
$var wire 1 7" r $end
$var parameter 32 '$ WIDTH $end
$var reg 1 L" q $end
$upscope $end
$scope module pc_if2id $end
$var wire 1 3 clk $end
$var wire 32 ($ d [31:0] $end
$var wire 1 0" en $end
$var wire 1 6" r $end
$var parameter 32 )$ WIDTH $end
$var reg 32 *$ q [31:0] $end
$upscope $end
$scope module reg_we_ex2mem $end
$var wire 1 3 clk $end
$var wire 1 5" d $end
$var wire 1 /" en $end
$var wire 1 6" r $end
$var parameter 32 +$ WIDTH $end
$var reg 1 F" q $end
$upscope $end
$scope module reg_we_id2ex $end
$var wire 1 6" ar $end
$var wire 1 3 clk $end
$var wire 1 G" d $end
$var wire 1 /" en $end
$var wire 1 7" r $end
$var parameter 32 ,$ WIDTH $end
$var reg 1 H" q $end
$upscope $end
$scope module reg_we_mem2wb $end
$var wire 1 3 clk $end
$var wire 1 F" d $end
$var wire 1 /" en $end
$var wire 1 6" r $end
$var parameter 32 -$ WIDTH $end
$var reg 1 E" q $end
$upscope $end
$scope module reg_write_addr_ex2mem $end
$var wire 1 3 clk $end
$var wire 1 /" en $end
$var wire 1 6" r $end
$var wire 5 .$ d [4:0] $end
$var parameter 32 /$ WIDTH $end
$var reg 5 0$ q [4:0] $end
$upscope $end
$scope module reg_write_addr_id2ex $end
$var wire 1 6" ar $end
$var wire 1 3 clk $end
$var wire 5 1$ d [4:0] $end
$var wire 1 /" en $end
$var wire 1 7" r $end
$var parameter 32 2$ WIDTH $end
$var reg 5 3$ q [4:0] $end
$upscope $end
$scope module reg_write_addr_mem2wb $end
$var wire 1 3 clk $end
$var wire 5 4$ d [4:0] $end
$var wire 1 /" en $end
$var wire 1 6" r $end
$var parameter 32 5$ WIDTH $end
$var reg 5 6$ q [4:0] $end
$upscope $end
$scope module reg_write_data_mem2wb $end
$var wire 1 3 clk $end
$var wire 32 7$ d [31:0] $end
$var wire 1 /" en $end
$var wire 1 6" r $end
$var parameter 32 8$ WIDTH $end
$var reg 32 9$ q [31:0] $end
$upscope $end
$scope module sc $end
$var wire 1 6" ar $end
$var wire 1 3 clk $end
$var wire 1 Y" d $end
$var wire 1 /" en $end
$var wire 1 7" r $end
$var parameter 32 :$ WIDTH $end
$var reg 1 Z" q $end
$upscope $end
$scope module stall_f_dff $end
$var wire 1 3 clk $end
$var wire 1 9" d $end
$var wire 1 /" en $end
$var wire 1 6" r $end
$var parameter 32 ;$ WIDTH $end
$var reg 1 8" q $end
$upscope $end
$scope module w_stage $end
$var wire 1 3 clk $end
$var wire 1 /" en $end
$var wire 1 E" reg_we $end
$var wire 5 <$ reg_write_addr [4:0] $end
$var wire 32 =$ reg_write_data [31:0] $end
$var wire 5 >$ rs_addr [4:0] $end
$var wire 5 ?$ rt_addr [4:0] $end
$var wire 32 @$ rt_data [31:0] $end
$var wire 32 A$ rs_data [31:0] $end
$upscope $end
$scope module x_stage $end
$var wire 32 B$ alu_op_x [31:0] $end
$var wire 32 C$ alu_op_x_signed [31:0] $end
$var wire 32 D$ alu_op_y [31:0] $end
$var wire 32 E$ alu_op_y_signed [31:0] $end
$var wire 4 F$ alu_opcode [3:0] $end
$var wire 1 G$ y_neg $end
$var wire 1 H$ x_neg $end
$var wire 1 I$ sub_pos_over $end
$var wire 1 J$ sub_neg_over $end
$var wire 1 K$ sub_check $end
$var wire 1 t" alu_overflow $end
$var wire 1 w" alu_op_y_zero $end
$var wire 1 L$ alu_neg $end
$var wire 1 M$ add_pos_over $end
$var wire 1 N$ add_neg_over $end
$var wire 1 O$ add_check $end
$var reg 32 P$ alu_result [31:0] $end
$upscope $end
$upscope $end
$scope module mips_local_store $end
$var wire 12 Q$ addr [11:0] $end
$var wire 1 3 clk $end
$var wire 32 R$ din [31:0] $end
$var wire 4 S$ we [3:0] $end
$var parameter 32 T$ ADDR_WIDTH $end
$var parameter 32 U$ COL_WIDTH $end
$var parameter 64 V$ DATA_WIDTH $end
$var parameter 32 W$ N_COLS $end
$var parameter 44 X$ RAM_DEPTH $end
$var reg 32 Y$ dout [31:0] $end
$scope begin column[0] $end
$var parameter 2 Z$ c $end
$upscope $end
$scope begin column[1] $end
$var parameter 2 [$ c $end
$upscope $end
$scope begin column[2] $end
$var parameter 3 \$ c $end
$upscope $end
$scope begin column[3] $end
$var parameter 3 ]$ c $end
$upscope $end
$upscope $end
$upscope $end
$upscope $end
$enddefinitions $end
$comment Show the parameter values. $end
$dumpall
b11 ]$
b10 \$
b1 [$
b0 Z$
b1000000000000 X$
b100 W$
b100000 V$
b1000 U$
b1100 T$
b1 ;$
b1 :$
b100000 8$
b101 5$
b101 2$
b101 /$
b1 -$
b1 ,$
b1 +$
b100000 )$
b1 '$
b1 &$
b100000 $$
b1 "$
b1 ~#
b1 }#
b1 |#
b1 {#
b1 z#
b1 y#
b1 x#
b1 w#
b100000 u#
b100000 r#
b1 *#
b100000 (#
b100 %#
b100000 "#
b100000 }"
b100000 '"
b1100 &"
b1000000000000000 %"
b100000 $"
b1111 #"
b11 d
b10 c
b1 b
b0 a
b1000000000000000 _
b100 ^
b100000 ]
b1000 \
b1111 [
b100000000000000 V
b100000 U
b1110 T
b1000000000000000 O
b100000 N
b1111 M
b1000000000000000 2
b100000 1
b1111 0
$end
#0
$dumpvars
bx Y$
b0 S$
b0 R$
b0 Q$
b0 P$
0O$
0N$
0M$
0L$
0K$
0J$
0I$
0H$
0G$
b0 F$
b0 E$
b0 D$
b0 C$
b0 B$
bx A$
bx @$
bx ?$
bx >$
b0 =$
b0 <$
b0 9$
b0 7$
b0 6$
b0 4$
b0 3$
bx 1$
b0 0$
b0 .$
b0 *$
b0 ($
b0 %$
bx #$
x!$
b0 v#
bx t#
b0 s#
bx q#
bx p#
b0xxxxxxxxxxxxxxxxxxxxxxxxxx00 o#
b0 n#
b0 m#
b100 l#
bx k#
bx j#
bx i#
bx h#
bx g#
bx f#
b0 e#
0d#
0c#
0b#
0a#
bx `#
bx _#
bx ^#
bx0000000000000000 ]#
b0xxxxxxxxxxxxxxxx \#
bx [#
xZ#
xY#
xX#
xW#
xV#
xU#
xT#
bx S#
b0 R#
b1000 Q#
bx P#
xO#
xN#
bx M#
b0 L#
b0 K#
bx J#
bx I#
bx H#
0G#
bx F#
bx E#
bx D#
bx C#
b0xxxxx B#
xA#
b0 @#
bx ?#
bx >#
x=#
x<#
x;#
x:#
x9#
x8#
x7#
x6#
x5#
x4#
x3#
x2#
x1#
x0#
x/#
x.#
x-#
x,#
bx +#
b0 )#
b0 '#
b0 &#
bx $#
b0 ##
bx !#
b0 ~"
bx |"
b0 {"
bx z"
b0 y"
bx x"
1w"
b0 v"
bx u"
0t"
b0 s"
b0 r"
bx q"
b0 p"
b0 o"
bx n"
xm"
xl"
xk"
0j"
xi"
0h"
xg"
0f"
0e"
xd"
0c"
bx b"
b0xxxxxxxx a"
bx `"
b0xxxxxxxxxxxxxxxx _"
bx ^"
0]"
x\"
0["
0Z"
xY"
xX"
0W"
xV"
0U"
0T"
xS"
b0 R"
b0 Q"
bx P"
b0 O"
0N"
xM"
0L"
xK"
b0 J"
b0 I"
0H"
xG"
0F"
0E"
b0 D"
bx C"
b0 B"
b0 A"
b0 @"
b0 ?"
bx >"
bx ="
bx <"
bx ;"
b0 :"
09"
08"
07"
06"
05"
b0 4"
bx 3"
b0 2"
bx 1"
10"
1/"
x."
b0 -"
bx ,"
bx +"
x*"
x)"
bx ("
0""
0!"
0~
0}
b0 |
b0 {
bx z
b0 y
bx x
0w
b0 v
b0 u
b0 t
bx s
b0 r
b0 q
b0 p
b0 o
b0 n
b0 m
b0 l
bx k
bx j
bx i
bx h
bx g
b0xxxxxxxxxxxxxxxxxxxx10 f
1e
bx `
b0 Z
b0 Y
b0 X
bx W
0S
b0 R
b0 Q
bx P
0L
b0 K
b0 J
b1 I
b0 H
b1 G
b1 F
b0 E
bx D
bx C
b1 B
b0xxxxxxxxxxxxxxxxxxxx10 A
b111010001100101011100110111010001110011001011110110111101110010001011110111010001100101011100110111010000101110011100100110010101110011011101010110110001110100 @
0?
b0 >
bx =
b0 <
b100000000000000000 ;
b1111101000 :
b1110100011001010111001101110100011100110010111101101111011100100010111101100010011101010110100101101100011001000010111101100001011100000111000000101110011010000110010101111000 9
bx 8
bx 7
bx 6
b111010001100101011100110111010001110011001011110110111101110010001011110111001101110100011100100110010101100001011011010111011101100001011101100110010100101110011101100110001101100100 5
b0 4
03
bx /
b0 .
b0 -
bx ,
b0 +
b0 *
bx )
bx (
bx '
b0 &
b0 %
b0 $
b0 #
b0 "
b0 !
$end
#5000
0;#
b0 B#
b0 z"
b0 |"
b0 g#
b0 n"
b0 >#
b0 j#
b0 I#
0m"
0<#
b100 k#
b100 q#
b10000000000000100000000000000000 x"
b10000000000000100000000000000000 !#
b10000000000000100000000000000000 f#
0=#
02#
0l"
b10000 C"
b10000 M#
b10000 1$
0k"
1G"
0!$
0."
0X"
b0 ="
b0 H#
b0 A$
0-#
0,#
0.#
0/#
01#
00#
04#
03#
05#
09#
06#
0:#
07#
08#
b1100 u"
b1100 $#
b1100 h#
b10000000000000100000000000000000 _#
b11111111111111100000000000001100 p#
0Y#
0X#
0V#
0U#
1A#
0O#
0N#
1T#
0Z#
0S"
0\"
0d"
0g"
1V"
0Y"
0i"
b1111 S#
b0 >"
b0 J#
b0 >$
b10000 <"
b10000 F#
b10000 ?$
b10000 P#
b0 C#
0M"
0K"
b10 `#
b1000000000000010 \#
b11111111111111111000000000000010 ^#
b10000000000000100000000000000000 ]#
b1000000000000010 [#
b10000100000000000001000 o#
b100001000000000000010 i#
b111100000100001000000000000010 q"
b111100000100001000000000000010 +#
b111100000100001000000000000010 ,
b111100000100001000000000000010 W
b111100000100001000000000000010 g
b111100000100001000000000000010 1"
b111100000100001000000000000010 t#
b0 '
b0 k
b0 ,"
b0 (
b0 j
b0 +"
0*"
0)"
b0 ("
13
#10000
03
#15000
13
#20000
16"
03
b0xxxxxxxxxxxxxxxxxxxx00 A
b0xxxxxxxxxxxxxxxxxxxx00 f
1?
#25000
bx $
bx o
bx %
bx Y
bx #
bx n
0e
b1000 k#
b1000 q#
bx p
bx R"
bx R$
1I$
1L$
b1 Q
15"
1~
b10000000000000100000000000000000 {
b10000000000000100000000000000000 2"
b10000000000000100000000000000000 -"
b10000000000000100000000000000000 '#
b10000000000000100000000000000000 s"
b10000000000000100000000000000000 e#
b10000000000000100000000000000000 P$
1G$
b1 +
b1 |
1H"
b10000 D"
b10000 L#
b10000 .$
b10000 3$
1W"
bx Q"
bx %$
b1100 v"
b1100 &#
b1100 F$
b10000000000000100000000000000000 E$
0w"
b10000000000000100000000000000000 y"
b10000000000000100000000000000000 ##
b10000000000000100000000000000000 D$
b111100000100001000000000000010 o"
b111100000100001000000000000010 v#
b100 y
b100 4"
b100 I"
b100 n#
b100 s#
b100 ($
13
#30000
03
b1111100111 4
b0xxxxxxxxxxxxxxxxxxxx01 A
b0xxxxxxxxxxxxxxxxxxxx01 f
#35000
b1 x"
b1 !#
b1 f#
1=#
b10001 C"
b10001 M#
b10001 1$
b11 u"
b11 $#
b11 h#
b1 _#
b1100 k#
b1100 q#
1O#
0T#
1Z#
b1101 S#
b10001 <"
b10001 F#
b10001 ?$
b0 P#
b1 `#
b1 \#
b1 ^#
b10000000000000000 ]#
b1 [#
b10001000000000000000100 o#
b100010000000000000001 i#
b10 Q
b110100000100010000000000000001 q"
b110100000100010000000000000001 +#
b10 +
b10 |
b1 p"
b10000000000000100000000000000000 @"
b10000000000000100000000000000000 @#
b10000000000000100000000000000000 7$
bx _"
bx a"
b110100000100010000000000000001 ,
b110100000100010000000000000001 W
b110100000100010000000000000001 g
b110100000100010000000000000001 1"
b110100000100010000000000000001 t#
b1000 y
b1000 4"
b1000 I"
b1000 n#
b1000 s#
b1000 ($
b1100 p#
b1000 l#
b1100 Q#
b100 J"
b100 R#
b100 m#
b100 *$
b10000000000000100000000000000000 r"
b10000000000000100000000000000000 )#
1U"
b10000 B"
b10000 K#
b10000 0$
b10000 4$
1F"
13
#40000
03
b1111100110 4
#45000
b10010 C"
b10010 M#
b10010 1$
1e
b10000 k#
b10000 q#
b10010 <"
b10010 F#
b10010 ?$
b10010000000000000000100 o#
b100100000000000000001 i#
0L$
0M$
b11 Q
b110100000100100000000000000001 q"
b110100000100100000000000000001 +#
0!"
0~
b1 {
b1 2"
b1 -"
b1 '#
b1 s"
b1 e#
b1 P$
0I$
0G$
b10 p"
b11 +
b11 |
b110100000100100000000000000001 ,
b110100000100100000000000000001 W
b110100000100100000000000000001 g
b110100000100100000000000000001 1"
b110100000100100000000000000001 t#
1E"
b10000 A"
b10000 6$
b10000 <$
b10000000000000100000000000000000 ?"
b10000000000000100000000000000000 9$
b10000000000000100000000000000000 =$
b10001 D"
b10001 L#
b10001 .$
b10001 3$
b11 v"
b11 &#
b11 F$
b1 E$
b1 y"
b1 ##
b1 D$
b110100000100010000000000000001 o"
b110100000100010000000000000001 v#
b10000 p#
b1100 l#
b10000 Q#
b1000 J"
b1000 R#
b1000 m#
b1000 *$
b1100 y
b1100 4"
b1100 I"
b1100 n#
b1100 s#
b1100 ($
13
#50000
03
b1111100101 4
