sim/tests/sltiu/streamwave.vcd
$date
	Wed Feb 25 04:51:06 2026
$end
$version
	Icarus Verilog
$end
$timescale
	1ps
$end
$scope module userlogic_test $end
$var wire 2 ! ul_write_en_lo [1:0] $end
$var wire 2 " ul_write_en_hi [1:0] $end
$var wire 16 # ul_write_data_lo [15:0] $end
$var wire 16 $ ul_write_data_hi [15:0] $end
$var wire 32 % ul_write_data [31:0] $end
$var wire 32 & ul_write_addr [31:0] $end
$var wire 32 ' ul_test [31:0] $end
$var wire 32 ( ul_status [31:0] $end
$var wire 32 ) ul_read_data [31:0] $end
$var wire 32 * ul_read_addr [31:0] $end
$var wire 32 + ul_instr_addr [31:0] $end
$var wire 32 , ul_instr [31:0] $end
$var wire 15 - output_buffer_addr [14:0] $end
$var wire 15 . input_buffer_addr [14:0] $end
$var wire 32 / data_out [31:0] $end
$var parameter 32 0 ADDR_WIDTH $end
$var parameter 32 1 AXIS_DWIDTH $end
$var parameter 32 2 BUF_SIZE $end
$var reg 1 3 clk $end
$var reg 32 4 cycle_count [32:1] $end
$var reg 8192 5 dump_vars_filename [8192:1] $end
$var reg 10 6 image_n_columns [9:0] $end
$var reg 10 7 image_n_rows [9:0] $end
$var reg 8192 8 input_buffer_filename [8192:1] $end
$var reg 8192 9 instr_mem_filename [8192:1] $end
$var reg 32 : num_cycles [32:1] $end
$var reg 33 ; out_end_addr [32:0] $end
$var reg 33 < out_start_addr [32:0] $end
$var reg 8192 = output_buffer_filename [8192:1] $end
$var reg 15 > read_addr [14:0] $end
$var reg 1 ? rst_n $end
$var reg 8192 @ test_result_filename [8192:1] $end
$var reg 32 A ul_command [31:0] $end
$var integer 32 B dump_vars [31:0] $end
$var integer 32 C i [31:0] $end
$var integer 32 D outfile [31:0] $end
$var integer 32 E read_input_buffer [31:0] $end
$var integer 32 F read_instr_mem [31:0] $end
$var integer 32 G result [31:0] $end
$var integer 32 H write_output_buffer [31:0] $end
$var integer 32 I write_test_result [31:0] $end
$scope module input_buffer $end
$var wire 15 J addr [14:0] $end
$var wire 1 3 clk $end
$var wire 32 K din [31:0] $end
$var wire 1 L we $end
$var parameter 32 M AWIDTH $end
$var parameter 32 N DWIDTH $end
$var parameter 32 O SIZE $end
$var reg 32 P dout [31:0] $end
$upscope $end
$scope module instr_mem $end
$var wire 14 Q addr [13:0] $end
$var wire 1 3 clk $end
$var wire 32 R din [31:0] $end
$var wire 1 S we $end
$var parameter 32 T AWIDTH $end
$var parameter 32 U DWIDTH $end
$var parameter 32 V SIZE $end
$var reg 32 W dout [31:0] $end
$upscope $end
$scope module output_buffer $end
$var wire 15 X addr [14:0] $end
$var wire 1 3 clk $end
$var wire 32 Y din [31:0] $end
$var wire 4 Z we [3:0] $end
$var parameter 32 [ ADDR_WIDTH $end
$var parameter 32 \ COL_WIDTH $end
$var parameter 64 ] DATA_WIDTH $end
$var parameter 32 ^ N_COLS $end
$var parameter 47 _ RAM_DEPTH $end
$var reg 32 ` dout [31:0] $end
$scope begin column[0] $end
$var parameter 2 a c $end
$upscope $end
$scope begin column[1] $end
$var parameter 2 b c $end
$upscope $end
$scope begin column[2] $end
$var parameter 3 c c $end
$upscope $end
$scope begin column[3] $end
$var parameter 3 d c $end
$upscope $end
$upscope $end
$scope module ul $end
$var wire 1 e addr_local $end
$var wire 1 3 clk $end
$var wire 32 f command [31:0] $end
$var wire 32 g instr [31:0] $end
$var wire 16 h read_data_hi [15:0] $end
$var wire 16 i read_data_lo [15:0] $end
$var wire 1 ? rst_n $end
$var wire 32 j status [31:0] $end
$var wire 32 k test [31:0] $end
$var wire 2 l write_en_hi [1:0] $end
$var wire 2 m write_en_lo [1:0] $end
$var wire 16 n write_data_lo [15:0] $end
$var wire 16 o write_data_hi [15:0] $end
$var wire 32 p write_data [31:0] $end
$var wire 32 q write_addr_lo [31:0] $end
$var wire 32 r write_addr_hi [31:0] $end
$var wire 32 s read_data [31:0] $end
$var wire 32 t read_addr_lo [31:0] $end
$var wire 32 u read_addr_hi [31:0] $end
$var wire 4 v mips_write_en [3:0] $end
$var wire 1 w mips_read_en $end
$var wire 32 x mips_read_data [31:0] $end
$var wire 32 y mips_pc [31:0] $end
$var wire 32 z mips_local_read_data [31:0] $end
$var wire 32 { mips_addr [31:0] $end
$var wire 32 | instr_addr [31:0] $end
$var wire 1 } addr_test $end
$var wire 1 ~ addr_status $end
$var wire 1 !" addr_iobuf $end
$var wire 1 "" addr_cmd $end
$var parameter 32 #" ADDR_WIDTH $end
$var parameter 32 $" AXIS_DWIDTH $end
$var parameter 32 %" BUF_SIZE $end
$var parameter 32 &" LOCAL_ADDR_WIDTH $end
$var parameter 32 '" LOCAL_DATA_WIDTH $end
$var reg 32 (" cmd_d [31:0] $end
$var reg 1 )" read_cmd_d $end
$var reg 1 *" read_iobuf_d $end
$var reg 32 +" status_reg [31:0] $end
$var reg 32 ," test_reg [31:0] $end
$scope module cpu $end
$var wire 32 -" alu_sc_result_ex [31:0] $end
$var wire 1 ." atomic_en $end
$var wire 1 3 clk $end
$var wire 1 /" en $end
$var wire 1 0" en_if $end
$var wire 32 1" instr [31:0] $end
$var wire 1 2" jump_reg_id $end
$var wire 32 3" mem_addr [31:0] $end
$var wire 1 4" mem_atomic_id $end
$var wire 32 5" mem_read_data [31:0] $end
$var wire 1 w mem_read_en $end
$var wire 1 6" mem_sc_mask_id $end
$var wire 32 7" pc [31:0] $end
$var wire 1 8" reg_we_ex $end
$var wire 1 9" rst $end
$var wire 1 :" rst_id $end
$var wire 1 ;" stall_r $end
$var wire 1 <" stall $end
$var wire 32 =" sc_result [31:0] $end
$var wire 32 >" rt_data_id [31:0] $end
$var wire 5 ?" rt_addr_id [4:0] $end
$var wire 32 @" rs_data_id [31:0] $end
$var wire 5 A" rs_addr_id [4:0] $end
$var wire 32 B" reg_write_data_wb [31:0] $end
$var wire 32 C" reg_write_data_mem [31:0] $end
$var wire 5 D" reg_write_addr_wb [4:0] $end
$var wire 5 E" reg_write_addr_mem [4:0] $end
$var wire 5 F" reg_write_addr_id [4:0] $end
$var wire 5 G" reg_write_addr_ex [4:0] $end
$var wire 1 H" reg_we_wb $end
$var wire 1 I" reg_we_mem $end
$var wire 1 J" reg_we_id $end
$var wire 1 K" reg_we_cond_ex $end
$var wire 32 L" pc_if [31:0] $end
$var wire 32 M" pc_id [31:0] $end
$var wire 1 N" movz_id $end
$var wire 1 O" movz_ex $end
$var wire 1 P" movn_id $end
$var wire 1 Q" movn_ex $end
$var wire 4 R" mem_write_en [3:0] $end
$var wire 32 S" mem_write_data_id [31:0] $end
$var wire 32 T" mem_write_data_ex [31:0] $end
$var wire 32 U" mem_write_data [31:0] $end
$var wire 1 V" mem_we_id $end
$var wire 1 W" mem_we_ex $end
$var wire 1 X" mem_signextend_mem $end
$var wire 1 Y" mem_signextend_id $end
$var wire 1 Z" mem_signextend_ex $end
$var wire 1 [" mem_sc_id $end
$var wire 1 \" mem_sc_ex $end
$var wire 1 ]" mem_read_mem $end
$var wire 1 ^" mem_read_id $end
$var wire 1 _" mem_read_ex $end
$var wire 16 `" mem_read_data_half_select [15:0] $end
$var wire 32 a" mem_read_data_half_extend [31:0] $end
$var wire 8 b" mem_read_data_byte_select [7:0] $end
$var wire 32 c" mem_read_data_byte_extend [31:0] $end
$var wire 32 d" mem_out [31:0] $end
$var wire 1 e" mem_half_mem $end
$var wire 1 f" mem_half_id $end
$var wire 1 g" mem_half_ex $end
$var wire 1 h" mem_byte_mem $end
$var wire 1 i" mem_byte_id $end
$var wire 1 j" mem_byte_ex $end
$var wire 1 k" mem_atomic_ex $end
$var wire 1 l" jump_target_id $end
$var wire 1 m" jump_branch_id $end
$var wire 32 n" jr_pc_id [31:0] $end
$var wire 32 o" instr_sav [31:0] $end
$var wire 30 p" instr_number_id [29:0] $end
$var wire 32 q" instr_id [31:0] $end
$var wire 32 r" alu_result_mem [31:0] $end
$var wire 32 s" alu_result_ex [31:0] $end
$var wire 1 t" alu_overflow $end
$var wire 4 u" alu_opcode_id [3:0] $end
$var wire 4 v" alu_opcode_ex [3:0] $end
$var wire 1 w" alu_op_y_zero_ex $end
$var wire 32 x" alu_op_y_id [31:0] $end
$var wire 32 y" alu_op_y_ex [31:0] $end
$var wire 32 z" alu_op_x_id [31:0] $end
$var wire 32 {" alu_op_x_ex [31:0] $end
$scope module alu_op_x_id2ex $end
$var wire 1 9" ar $end
$var wire 1 3 clk $end
$var wire 1 /" en $end
$var wire 1 :" r $end
$var wire 32 |" d [31:0] $end
$var parameter 32 }" WIDTH $end
$var reg 32 ~" q [31:0] $end
$upscope $end
$scope module alu_op_y_id2ex $end
$var wire 1 9" ar $end
$var wire 1 3 clk $end
$var wire 1 /" en $end
$var wire 1 :" r $end
$var wire 32 !# d [31:0] $end
$var parameter 32 "# WIDTH $end
$var reg 32 ## q [31:0] $end
$upscope $end
$scope module alu_opcode_id2ex $end
$var wire 1 9" ar $end
$var wire 1 3 clk $end
$var wire 1 /" en $end
$var wire 1 :" r $end
$var wire 4 $# d [3:0] $end
$var parameter 32 %# WIDTH $end
$var reg 4 &# q [3:0] $end
$upscope $end
$scope module alu_result_ex2mem $end
$var wire 1 3 clk $end
$var wire 32 '# d [31:0] $end
$var wire 1 /" en $end
$var wire 1 9" r $end
$var parameter 32 (# WIDTH $end
$var reg 32 )# q [31:0] $end
$upscope $end
$scope module atomic $end
$var wire 1 9" ar $end
$var wire 1 3 clk $end
$var wire 1 4" d $end
$var wire 1 ." en $end
$var wire 1 :" r $end
$var parameter 32 *# WIDTH $end
$var reg 1 k" q $end
$upscope $end
$scope module d_stage $end
$var wire 1 k" atomic_ex $end
$var wire 1 4" atomic_id $end
$var wire 32 +# instr [31:0] $end
$var wire 1 ,# isBGEZAL $end
$var wire 1 -# isBGEZNL $end
$var wire 1 .# isBGTZ $end
$var wire 1 /# isBLEZ $end
$var wire 1 0# isBLTZAL $end
$var wire 1 1# isBLTZNL $end
$var wire 1 2# isBranchLink $end
$var wire 1 3# isSLL $end
$var wire 1 4# isSLLV $end
$var wire 1 5# isSRA $end
$var wire 1 6# isSRAV $end
$var wire 1 7# isSRL $end
$var wire 1 8# isSRLV $end
$var wire 1 9# isShift $end
$var wire 1 :# isShiftImm $end
$var wire 1 ;# isZeroExtImm $end
$var wire 32 <# jr_pc [31:0] $end
$var wire 1 2" jump_reg $end
$var wire 1 l" jump_target $end
$var wire 1 6" mem_sc_mask_id $end
$var wire 32 =# mem_write_data [31:0] $end
$var wire 1 8" reg_we_ex $end
$var wire 32 ># reg_write_data_mem [31:0] $end
$var wire 1 <" stall $end
$var wire 1 ?# use_imm $end
$var wire 32 @# shift_amount [31:0] $end
$var wire 5 A# shamt [4:0] $end
$var wire 32 B# rt_data_in [31:0] $end
$var wire 32 C# rt_data [31:0] $end
$var wire 5 D# rt_addr [4:0] $end
$var wire 1 E# rs_mem_dependency $end
$var wire 32 F# rs_data_in [31:0] $end
$var wire 32 G# rs_data [31:0] $end
$var wire 5 H# rs_addr [4:0] $end
$var wire 5 I# reg_write_addr_mem [4:0] $end
$var wire 5 J# reg_write_addr_ex [4:0] $end
$var wire 5 K# reg_write_addr [4:0] $end
$var wire 1 I" reg_we_mem $end
$var wire 1 J" reg_we $end
$var wire 1 L# read_from_rt $end
$var wire 1 M# read_from_rs $end
$var wire 5 N# rd_addr [4:0] $end
$var wire 32 O# pc [31:0] $end
$var wire 6 P# op [5:0] $end
$var wire 1 N" movz $end
$var wire 1 P" movn $end
$var wire 1 V" mem_we $end
$var wire 1 Y" mem_signextend $end
$var wire 1 [" mem_sc_id $end
$var wire 1 _" mem_read_ex $end
$var wire 1 ^" mem_read $end
$var wire 1 f" mem_half $end
$var wire 1 i" mem_byte $end
$var wire 1 m" jump_branch $end
$var wire 1 Q# isLUI $end
$var wire 1 R# isJ $end
$var wire 1 S# isEqual $end
$var wire 1 T# isBNE $end
$var wire 1 U# isBEQ $end
$var wire 1 V# isALUImm $end
$var wire 16 W# immediate [15:0] $end
$var wire 32 X# imm_zero_extend [31:0] $end
$var wire 32 Y# imm_upper [31:0] $end
$var wire 32 Z# imm_sign_extend [31:0] $end
$var wire 32 [# imm [31:0] $end
$var wire 6 \# funct [5:0] $end
$var wire 1 ]# forward_rt_mem $end
$var wire 1 ^# forward_rt_ex $end
$var wire 1 _# forward_rs_mem $end
$var wire 1 `# forward_rs_ex $end
$var wire 32 a# alu_result_ex [31:0] $end
$var wire 32 b# alu_op_y [31:0] $end
$var wire 32 c# alu_op_x [31:0] $end
$var reg 4 d# alu_opcode [3:0] $end
$upscope $end
$scope module if_stage $end
$var wire 1 3 clk $end
$var wire 1 0" en $end
$var wire 26 e# instr_id [25:0] $end
$var wire 1 m" jump_branch $end
$var wire 1 l" jump_target $end
$var wire 1 9" rst $end
$var wire 32 f# pc_next [31:0] $end
$var wire 32 g# pc_id_p4 [31:0] $end
$var wire 32 h# pc_id [31:0] $end
$var wire 32 i# pc [31:0] $end
$var wire 32 j# j_addr [31:0] $end
$var wire 32 k# branch_target [31:0] $end
$scope module pc_reg $end
$var wire 1 3 clk $end
$var wire 32 l# d [31:0] $end
$var wire 1 0" en $end
$var wire 1 9" r $end
$var parameter 32 m# WIDTH $end
$var reg 32 n# q [31:0] $end
$upscope $end
$upscope $end
$scope module instr_sav_dff $end
$var wire 1 3 clk $end
$var wire 32 o# d [31:0] $end
$var wire 1 /" en $end
$var wire 1 9" r $end
$var parameter 32 p# WIDTH $end
$var reg 32 q# q [31:0] $end
$upscope $end
$scope module mem_byte_ex2mem $end
$var wire 1 3 clk $end
$var wire 1 /" en $end
$var wire 1 9" r $end
$var wire 1 j" d $end
$var parameter 32 r# WIDTH $end
$var reg 1 h" q $end
$upscope $end
$scope module mem_byte_id2ex $end
$var wire 1 9" ar $end
$var wire 1 3 clk $end
$var wire 1 i" d $end
$var wire 1 /" en $end
$var wire 1 :" r $end
$var parameter 32 s# WIDTH $end
$var reg 1 j" q $end
$upscope $end
$scope module mem_half_ex2mem $end
$var wire 1 3 clk $end
$var wire 1 /" en $end
$var wire 1 9" r $end
$var wire 1 g" d $end
$var parameter 32 t# WIDTH $end
$var reg 1 e" q $end
$upscope $end
$scope module mem_half_id2ex $end
$var wire 1 9" ar $end
$var wire 1 3 clk $end
$var wire 1 f" d $end
$var wire 1 /" en $end
$var wire 1 :" r $end
$var parameter 32 u# WIDTH $end
$var reg 1 g" q $end
$upscope $end
$scope module mem_read_ex2mem $end
$var wire 1 3 clk $end
$var wire 1 /" en $end
$var wire 1 9" r $end
$var wire 1 _" d $end
$var parameter 32 v# WIDTH $end
$var reg 1 ]" q $end
$upscope $end
$scope module mem_read_id2ex $end
$var wire 1 9" ar $end
$var wire 1 3 clk $end
$var wire 1 ^" d $end
$var wire 1 /" en $end
$var wire 1 :" r $end
$var parameter 32 w# WIDTH $end
$var reg 1 _" q $end
$upscope $end
$scope module mem_signextend_ex2mem $end
$var wire 1 3 clk $end
$var wire 1 /" en $end
$var wire 1 9" r $end
$var wire 1 Z" d $end
$var parameter 32 x# WIDTH $end
$var reg 1 X" q $end
$upscope $end
$scope module mem_signextend_id2ex $end
$var wire 1 9" ar $end
$var wire 1 3 clk $end
$var wire 1 Y" d $end
$var wire 1 /" en $end
$var wire 1 :" r $end
$var parameter 32 y# WIDTH $end
$var reg 1 Z" q $end
$upscope $end
$scope module mem_we_id2ex $end
$var wire 1 9" ar $end
$var wire 1 3 clk $end
$var wire 1 z# d $end
$var wire 1 /" en $end
$var wire 1 :" r $end
$var parameter 32 {# WIDTH $end
$var reg 1 W" q $end
$upscope $end
$scope module mem_write_data_id2ex $end
$var wire 1 9" ar $end
$var wire 1 3 clk $end
$var wire 32 |# d [31:0] $end
$var wire 1 /" en $end
$var wire 1 :" r $end
$var parameter 32 }# WIDTH $end
$var reg 32 ~# q [31:0] $end
$upscope $end
$scope module movn $end
$var wire 1 9" ar $end
$var wire 1 3 clk $end
$var wire 1 P" d $end
$var wire 1 /" en $end
$var wire 1 :" r $end
$var parameter 32 !$ WIDTH $end
$var reg 1 Q" q $end
$upscope $end
$scope module movz $end
$var wire 1 9" ar $end
$var wire 1 3 clk $end
$var wire 1 N" d $end
$var wire 1 /" en $end
$var wire 1 :" r $end
$var parameter 32 "$ WIDTH $end
$var reg 1 O" q $end
$upscope $end
$scope module pc_if2id $end
$var wire 1 3 clk $end
$var wire 32 #$ d [31:0] $end
$var wire 1 0" en $end
$var wire 1 9" r $end
$var parameter 32 $$ WIDTH $end
$var reg 32 %$ q [31:0] $end
$upscope $end
$scope module reg_we_ex2mem $end
$var wire 1 3 clk $end
$var wire 1 8" d $end
$var wire 1 /" en $end
$var wire 1 9" r $end
$var parameter 32 &$ WIDTH $end
$var reg 1 I" q $end
$upscope $end
$scope module reg_we_id2ex $end
$var wire 1 9" ar $end
$var wire 1 3 clk $end
$var wire 1 J" d $end
$var wire 1 /" en $end
$var wire 1 :" r $end
$var parameter 32 '$ WIDTH $end
$var reg 1 K" q $end
$upscope $end
$scope module reg_we_mem2wb $end
$var wire 1 3 clk $end
$var wire 1 I" d $end
$var wire 1 /" en $end
$var wire 1 9" r $end
$var parameter 32 ($ WIDTH $end
$var reg 1 H" q $end
$upscope $end
$scope module reg_write_addr_ex2mem $end
$var wire 1 3 clk $end
$var wire 1 /" en $end
$var wire 1 9" r $end
$var wire 5 )$ d [4:0] $end
$var parameter 32 *$ WIDTH $end
$var reg 5 +$ q [4:0] $end
$upscope $end
$scope module reg_write_addr_id2ex $end
$var wire 1 9" ar $end
$var wire 1 3 clk $end
$var wire 5 ,$ d [4:0] $end
$var wire 1 /" en $end
$var wire 1 :" r $end
$var parameter 32 -$ WIDTH $end
$var reg 5 .$ q [4:0] $end
$upscope $end
$scope module reg_write_addr_mem2wb $end
$var wire 1 3 clk $end
$var wire 5 /$ d [4:0] $end
$var wire 1 /" en $end
$var wire 1 9" r $end
$var parameter 32 0$ WIDTH $end
$var reg 5 1$ q [4:0] $end
$upscope $end
$scope module reg_write_data_mem2wb $end
$var wire 1 3 clk $end
$var wire 32 2$ d [31:0] $end
$var wire 1 /" en $end
$var wire 1 9" r $end
$var parameter 32 3$ WIDTH $end
$var reg 32 4$ q [31:0] $end
$upscope $end
$scope module sc $end
$var wire 1 9" ar $end
$var wire 1 3 clk $end
$var wire 1 [" d $end
$var wire 1 /" en $end
$var wire 1 :" r $end
$var parameter 32 5$ WIDTH $end
$var reg 1 \" q $end
$upscope $end
$scope module stall_f_dff $end
$var wire 1 3 clk $end
$var wire 1 <" d $end
$var wire 1 /" en $end
$var wire 1 9" r $end
$var parameter 32 6$ WIDTH $end
$var reg 1 ;" q $end
$upscope $end
$scope module w_stage $end
$var wire 1 3 clk $end
$var wire 1 /" en $end
$var wire 1 H" reg_we $end
$var wire 5 7$ reg_write_addr [4:0] $end
$var wire 32 8$ reg_write_data [31:0] $end
$var wire 5 9$ rs_addr [4:0] $end
$var wire 5 :$ rt_addr [4:0] $end
$var wire 32 ;$ rt_data [31:0] $end
$var wire 32 <$ rs_data [31:0] $end
$upscope $end
$scope module x_stage $end
$var wire 32 =$ alu_op_x [31:0] $end
$var wire 32 >$ alu_op_x_signed [31:0] $end
$var wire 32 ?$ alu_op_y [31:0] $end
$var wire 32 @$ alu_op_y_signed [31:0] $end
$var wire 4 A$ alu_opcode [3:0] $end
$var wire 1 B$ y_neg $end
$var wire 1 C$ x_neg $end
$var wire 1 D$ sub_pos_over $end
$var wire 1 E$ sub_neg_over $end
$var wire 1 F$ sub_check $end
$var wire 1 t" alu_overflow $end
$var wire 1 w" alu_op_y_zero $end
$var wire 1 G$ alu_neg $end
$var wire 1 H$ add_pos_over $end
$var wire 1 I$ add_neg_over $end
$var wire 1 J$ add_check $end
$var reg 32 K$ alu_result [31:0] $end
$upscope $end
$upscope $end
$scope module mips_local_store $end
$var wire 12 L$ addr [11:0] $end
$var wire 1 3 clk $end
$var wire 32 M$ din [31:0] $end
$var wire 4 N$ we [3:0] $end
$var parameter 32 O$ ADDR_WIDTH $end
$var parameter 32 P$ COL_WIDTH $end
$var parameter 64 Q$ DATA_WIDTH $end
$var parameter 32 R$ N_COLS $end
$var parameter 44 S$ RAM_DEPTH $end
$var reg 32 T$ dout [31:0] $end
$scope begin column[0] $end
$var parameter 2 U$ c $end
$upscope $end
$scope begin column[1] $end
$var parameter 2 V$ c $end
$upscope $end
$scope begin column[2] $end
$var parameter 3 W$ c $end
$upscope $end
$scope begin column[3] $end
$var parameter 3 X$ c $end
$upscope $end
$upscope $end
$upscope $end
$upscope $end
$enddefinitions $end
$comment Show the parameter values. $end
$dumpall
b11 X$
b10 W$
b1 V$
b0 U$
b1000000000000 S$
b100 R$
b100000 Q$
b1000 P$
b1100 O$
b1 6$
b1 5$
b100000 3$
b101 0$
b101 -$
b101 *$
b1 ($
b1 '$
b1 &$
b100000 $$
b1 "$
b1 !$
b100000 }#
b1 {#
b1 y#
b1 x#
b1 w#
b1 v#
b1 u#
b1 t#
b1 s#
b1 r#
b100000 p#
b100000 m#
b1 *#
b100000 (#
b100 %#
b100000 "#
b100000 }"
b100000 '"
b1100 &"
b1000000000000000 %"
b100000 $"
b1111 #"
b11 d
b10 c
b1 b
b0 a
b1000000000000000 _
b100 ^
b100000 ]
b1000 \
b1111 [
b100000000000000 V
b100000 U
b1110 T
b1000000000000000 O
b100000 N
b1111 M
b1000000000000000 2
b100000 1
b1111 0
$end
#0
$dumpvars
bx T$
b0 N$
b0 M$
b0 L$
b0 K$
0J$
0I$
0H$
0G$
0F$
0E$
0D$
0C$
0B$
b0 A$
b0 @$
b0 ?$
b0 >$
b0 =$
bx <$
bx ;$
bx :$
bx 9$
b0 8$
b0 7$
b0 4$
b0 2$
b0 1$
b0 /$
b0 .$
bx ,$
b0 +$
b0 )$
b0 %$
b0 #$
b0 ~#
bx |#
xz#
b0 q#
bx o#
b0 n#
bx l#
bx k#
b0xxxxxxxxxxxxxxxxxxxxxxxxxx00 j#
b0 i#
b0 h#
b100 g#
bx f#
bx e#
bx d#
bx c#
bx b#
b0 a#
0`#
0_#
0^#
0]#
bx \#
bx [#
bx Z#
bx0000000000000000 Y#
b0xxxxxxxxxxxxxxxx X#
bx W#
xV#
xU#
xT#
xS#
xR#
xQ#
bx P#
b0 O#
bx N#
xM#
xL#
bx K#
b0 J#
b0 I#
bx H#
bx G#
bx F#
0E#
bx D#
bx C#
bx B#
bx A#
b0xxxxx @#
x?#
b0 >#
bx =#
bx <#
x;#
x:#
x9#
x8#
x7#
x6#
x5#
x4#
x3#
x2#
x1#
x0#
x/#
x.#
x-#
x,#
bx +#
b0 )#
b0 '#
b0 &#
bx $#
b0 ##
bx !#
b0 ~"
bx |"
b0 {"
bx z"
b0 y"
bx x"
1w"
b0 v"
bx u"
0t"
b0 s"
b0 r"
bx q"
b0 p"
b0 o"
bx n"
xm"
xl"
0k"
0j"
xi"
0h"
0g"
xf"
0e"
bx d"
b0xxxxxxxx c"
bx b"
b0xxxxxxxxxxxxxxxx a"
bx `"
0_"
x^"
0]"
0\"
x["
0Z"
xY"
0X"
0W"
xV"
b0 U"
b0 T"
bx S"
b0 R"
0Q"
xP"
0O"
xN"
b0 M"
b0 L"
0K"
xJ"
0I"
0H"
b0 G"
bx F"
b0 E"
b0 D"
b0 C"
b0 B"
bx A"
bx @"
bx ?"
bx >"
b0 ="
0<"
0;"
0:"
09"
08"
b0 7"
06"
bx 5"
04"
b0 3"
02"
bx 1"
10"
1/"
x."
b0 -"
bx ,"
bx +"
x*"
x)"
bx ("
0""
0!"
0~
0}
b0 |
b0 {
bx z
b0 y
bx x
0w
b0 v
b0 u
b0 t
bx s
b0 r
b0 q
b0 p
b0 o
b0 n
b0 m
b0 l
bx k
bx j
bx i
bx h
bx g
b0xxxxxxxxxxxxxxxxxxxx10 f
1e
bx `
b0 Z
b0 Y
b0 X
bx W
0S
b0 R
b0 Q
bx P
0L
b0 K
b0 J
b1 I
b0 H
b1 G
b1 F
b0 E
bx D
bx C
b1 B
b0xxxxxxxxxxxxxxxxxxxx10 A
b111010001100101011100110111010001110011001011110111001101101100011101000110100101110101001011110111010001100101011100110111010000101110011100100110010101110011011101010110110001110100 @
0?
b0 >
bx =
b0 <
b100000000000000000 ;
b1111101000 :
b1110100011001010111001101110100011100110010111101110011011011000111010001101001011101010010111101100010011101010110100101101100011001000010111101100001011100000111000000101110011010000110010101111000 9
bx 8
bx 7
bx 6
b111010001100101011100110111010001110011001011110111001101101100011101000110100101110101001011110111001101110100011100100110010101100001011011010111011101100001011101100110010100101110011101100110001101100100 5
b0 4
03
bx /
b0 .
b0 -
bx ,
b0 +
b0 *
bx )
bx (
bx '
b0 &
b0 %
b0 $
b0 #
b0 "
b0 !
$end
#5000
09#
b0 @#
b0 z"
b0 |"
b0 c#
b0 n"
b0 <#
b0 G#
0:#
0;#
02#
b100 f#
b100 l#
0m"
b10000000000000100000000000000000 x"
b10000000000000100000000000000000 !#
b10000000000000100000000000000000 b#
1J"
0z#
0."
b0 @"
b0 F#
b0 <$
0-#
0,#
0.#
0/#
01#
00#
b10000 F"
b10000 K#
b10000 ,$
03#
07#
04#
08#
05#
06#
b1100 u"
b1100 $#
b1100 d#
b10000000000000100000000000000000 [#
b11111111111111100000000000001100 k#
0U#
0T#
0l"
0R#
1?#
0M#
0L#
1Q#
0V#
0V"
0^"
0f"
0i"
1Y"
0["
b1111 P#
b0 A"
b0 H#
b0 9$
b10000 ?"
b10000 D#
b10000 :$
b10000 N#
b0 A#
0P"
0N"
b10 \#
b1000000000000010 X#
b11111111111111111000000000000010 Z#
b10000000000000100000000000000000 Y#
b1000000000000010 W#
b10000100000000000001000 j#
b100001000000000000010 e#
b111100000100001000000000000010 q"
b111100000100001000000000000010 +#
b111100000100001000000000000010 ,
b111100000100001000000000000010 W
b111100000100001000000000000010 g
b111100000100001000000000000010 1"
b111100000100001000000000000010 o#
b0 '
b0 k
b0 ,"
b0 (
b0 j
b0 +"
0*"
0)"
b0 ("
13
#10000
03
#15000
13
#20000
19"
03
b0xxxxxxxxxxxxxxxxxxxx00 A
b0xxxxxxxxxxxxxxxxxxxx00 f
1?
#25000
bx $
bx o
bx %
bx Y
bx #
bx n
0e
bx p
bx U"
bx M$
1D$
1G$
b1000 f#
b1000 l#
b1 Q
18"
1~
b10000000000000100000000000000000 {
b10000000000000100000000000000000 3"
b10000000000000100000000000000000 -"
b10000000000000100000000000000000 '#
b10000000000000100000000000000000 s"
b10000000000000100000000000000000 a#
b10000000000000100000000000000000 K$
1B$
b1 +
b1 |
1K"
b10000 G"
b10000 J#
b10000 )$
b10000 .$
1Z"
bx T"
bx ~#
b1100 v"
b1100 &#
b1100 A$
b10000000000000100000000000000000 @$
0w"
b10000000000000100000000000000000 y"
b10000000000000100000000000000000 ##
b10000000000000100000000000000000 ?$
b111100000100001000000000000010 o"
b111100000100001000000000000010 q#
b100 y
b100 7"
b100 L"
b100 i#
b100 n#
b100 #$
13
#30000
03
b1111100111 4
b0xxxxxxxxxxxxxxxxxxxx01 A
b0xxxxxxxxxxxxxxxxxxxx01 f
#35000
1;#
b1 x"
b1 !#
b1 b#
b10001 F"
b10001 K#
b10001 ,$
b11 u"
b11 $#
b11 d#
b1 [#
1M#
0Q#
1V#
b1101 P#
b10001 ?"
b10001 D#
b10001 :$
b0 N#
b1 \#
b1 X#
b1 Z#
b10000000000000000 Y#
b1 W#
b10001000000000000000100 j#
b100010000000000000001 e#
b1100 f#
b1100 l#
b10 Q
b110100000100010000000000000001 q"
b110100000100010000000000000001 +#
b10 +
b10 |
b1 p"
b10000000000000100000000000000000 C"
b10000000000000100000000000000000 >#
b10000000000000100000000000000000 2$
bx a"
bx c"
b110100000100010000000000000001 ,
b110100000100010000000000000001 W
b110100000100010000000000000001 g
b110100000100010000000000000001 1"
b110100000100010000000000000001 o#
b1000 y
b1000 7"
b1000 L"
b1000 i#
b1000 n#
b1000 #$
b1100 k#
b1000 g#
b100 M"
b100 O#
b100 h#
b100 %$
b10000000000000100000000000000000 r"
b10000000000000100000000000000000 )#
1X"
b10000 E"
b10000 I#
b10000 +$
b10000 /$
1I"
13
#40000
03
b1111100110 4
#45000
19#
1S#
b0 S"
b0 =#
b0 |#
b0 C#
0M#
1:#
0;#
b0 [#
b0 x"
b0 !#
b0 b#
b0 F"
b0 K#
b0 ,$
b0 >"
b0 B#
b0 ;$
13#
b1010 u"
b1010 $#
b1010 d#
1e
0?#
1L#
0V#
b0 P#
b0 ?"
b0 D#
b0 :$
b0 \#
b0 X#
b0 Z#
b0 Y#
b0 W#
b0 j#
b0 e#
0G$
0H$
b10000 f#
b10000 l#
b11 Q
b0 q"
b0 +#
0!"
0~
b1 {
b1 3"
b1 -"
b1 '#
b1 s"
b1 a#
b1 K$
0D$
0B$
b10 p"
b11 +
b11 |
b0 ,
b0 W
b0 g
b0 1"
b0 o#
1H"
b10000 D"
b10000 1$
b10000 7$
b10000000000000100000000000000000 B"
b10000000000000100000000000000000 4$
b10000000000000100000000000000000 8$
b10001 G"
b10001 J#
b10001 )$
b10001 .$
b11 v"
b11 &#
b11 A$
b1 @$
b1 y"
b1 ##
b1 ?$
b110100000100010000000000000001 o"
b110100000100010000000000000001 q#
b1100 k#
b1100 g#
b1000 M"
b1000 O#
b1000 h#
b1000 %$
b1100 y
b1100 7"
b1100 L"
b1100 i#
b1100 n#
b1100 #$
13
#50000
03
b1111100101 4
