sim/tests/sra/streamwave.vcd
$date
	Wed Feb 25 01:14:41 2026
$end
$version
	Icarus Verilog
$end
$timescale
	1ps
$end
$scope module userlogic_test $end
$var wire 2 ! ul_write_en_lo [1:0] $end
$var wire 2 " ul_write_en_hi [1:0] $end
$var wire 16 # ul_write_data_lo [15:0] $end
$var wire 16 $ ul_write_data_hi [15:0] $end
$var wire 32 % ul_write_data [31:0] $end
$var wire 32 & ul_write_addr [31:0] $end
$var wire 32 ' ul_test [31:0] $end
$var wire 32 ( ul_status [31:0] $end
$var wire 32 ) ul_read_data [31:0] $end
$var wire 32 * ul_read_addr [31:0] $end
$var wire 32 + ul_instr_addr [31:0] $end
$var wire 32 , ul_instr [31:0] $end
$var wire 15 - output_buffer_addr [14:0] $end
$var wire 15 . input_buffer_addr [14:0] $end
$var wire 32 / data_out [31:0] $end
$var parameter 32 0 ADDR_WIDTH $end
$var parameter 32 1 AXIS_DWIDTH $end
$var parameter 32 2 BUF_SIZE $end
$var reg 1 3 clk $end
$var reg 32 4 cycle_count [32:1] $end
$var reg 8192 5 dump_vars_filename [8192:1] $end
$var reg 10 6 image_n_columns [9:0] $end
$var reg 10 7 image_n_rows [9:0] $end
$var reg 8192 8 input_buffer_filename [8192:1] $end
$var reg 8192 9 instr_mem_filename [8192:1] $end
$var reg 32 : num_cycles [32:1] $end
$var reg 33 ; out_end_addr [32:0] $end
$var reg 33 < out_start_addr [32:0] $end
$var reg 8192 = output_buffer_filename [8192:1] $end
$var reg 15 > read_addr [14:0] $end
$var reg 1 ? rst_n $end
$var reg 8192 @ test_result_filename [8192:1] $end
$var reg 32 A ul_command [31:0] $end
$var integer 32 B dump_vars [31:0] $end
$var integer 32 C i [31:0] $end
$var integer 32 D outfile [31:0] $end
$var integer 32 E read_input_buffer [31:0] $end
$var integer 32 F read_instr_mem [31:0] $end
$var integer 32 G result [31:0] $end
$var integer 32 H write_output_buffer [31:0] $end
$var integer 32 I write_test_result [31:0] $end
$scope module input_buffer $end
$var wire 15 J addr [14:0] $end
$var wire 1 3 clk $end
$var wire 32 K din [31:0] $end
$var wire 1 L we $end
$var parameter 32 M AWIDTH $end
$var parameter 32 N DWIDTH $end
$var parameter 32 O SIZE $end
$var reg 32 P dout [31:0] $end
$upscope $end
$scope module instr_mem $end
$var wire 14 Q addr [13:0] $end
$var wire 1 3 clk $end
$var wire 32 R din [31:0] $end
$var wire 1 S we $end
$var parameter 32 T AWIDTH $end
$var parameter 32 U DWIDTH $end
$var parameter 32 V SIZE $end
$var reg 32 W dout [31:0] $end
$upscope $end
$scope module output_buffer $end
$var wire 15 X addr [14:0] $end
$var wire 1 3 clk $end
$var wire 32 Y din [31:0] $end
$var wire 4 Z we [3:0] $end
$var parameter 32 [ ADDR_WIDTH $end
$var parameter 32 \ COL_WIDTH $end
$var parameter 64 ] DATA_WIDTH $end
$var parameter 32 ^ N_COLS $end
$var parameter 47 _ RAM_DEPTH $end
$var reg 32 ` dout [31:0] $end
$scope begin column[0] $end
$var parameter 2 a c $end
$upscope $end
$scope begin column[1] $end
$var parameter 2 b c $end
$upscope $end
$scope begin column[2] $end
$var parameter 3 c c $end
$upscope $end
$scope begin column[3] $end
$var parameter 3 d c $end
$upscope $end
$upscope $end
$scope module ul $end
$var wire 1 e addr_local $end
$var wire 1 3 clk $end
$var wire 32 f command [31:0] $end
$var wire 32 g instr [31:0] $end
$var wire 16 h read_data_hi [15:0] $end
$var wire 16 i read_data_lo [15:0] $end
$var wire 1 ? rst_n $end
$var wire 32 j status [31:0] $end
$var wire 32 k test [31:0] $end
$var wire 2 l write_en_hi [1:0] $end
$var wire 2 m write_en_lo [1:0] $end
$var wire 16 n write_data_lo [15:0] $end
$var wire 16 o write_data_hi [15:0] $end
$var wire 32 p write_data [31:0] $end
$var wire 32 q write_addr_lo [31:0] $end
$var wire 32 r write_addr_hi [31:0] $end
$var wire 32 s read_data [31:0] $end
$var wire 32 t read_addr_lo [31:0] $end
$var wire 32 u read_addr_hi [31:0] $end
$var wire 4 v mips_write_en [3:0] $end
$var wire 1 w mips_read_en $end
$var wire 32 x mips_read_data [31:0] $end
$var wire 32 y mips_pc [31:0] $end
$var wire 32 z mips_local_read_data [31:0] $end
$var wire 32 { mips_addr [31:0] $end
$var wire 32 | instr_addr [31:0] $end
$var wire 1 } addr_test $end
$var wire 1 ~ addr_status $end
$var wire 1 !" addr_iobuf $end
$var wire 1 "" addr_cmd $end
$var parameter 32 #" ADDR_WIDTH $end
$var parameter 32 $" AXIS_DWIDTH $end
$var parameter 32 %" BUF_SIZE $end
$var parameter 32 &" LOCAL_ADDR_WIDTH $end
$var parameter 32 '" LOCAL_DATA_WIDTH $end
$var reg 32 (" cmd_d [31:0] $end
$var reg 1 )" read_cmd_d $end
$var reg 1 *" read_iobuf_d $end
$var reg 32 +" status_reg [31:0] $end
$var reg 32 ," test_reg [31:0] $end
$scope module cpu $end
$var wire 32 -" alu_sc_result_ex [31:0] $end
$var wire 1 ." atomic_en $end
$var wire 1 3 clk $end
$var wire 1 /" en $end
$var wire 1 0" en_if $end
$var wire 32 1" instr [31:0] $end
$var wire 1 2" jump_reg_id $end
$var wire 32 3" mem_addr [31:0] $end
$var wire 1 4" mem_atomic_id $end
$var wire 32 5" mem_read_data [31:0] $end
$var wire 1 w mem_read_en $end
$var wire 1 6" mem_sc_mask_id $end
$var wire 32 7" pc [31:0] $end
$var wire 1 8" reg_we_ex $end
$var wire 1 9" rst $end
$var wire 1 :" rst_id $end
$var wire 1 ;" stall_r $end
$var wire 1 <" stall $end
$var wire 32 =" sc_result [31:0] $end
$var wire 32 >" rt_data_id [31:0] $end
$var wire 5 ?" rt_addr_id [4:0] $end
$var wire 32 @" rs_data_id [31:0] $end
$var wire 5 A" rs_addr_id [4:0] $end
$var wire 32 B" reg_write_data_wb [31:0] $end
$var wire 32 C" reg_write_data_mem [31:0] $end
$var wire 5 D" reg_write_addr_wb [4:0] $end
$var wire 5 E" reg_write_addr_mem [4:0] $end
$var wire 5 F" reg_write_addr_id [4:0] $end
$var wire 5 G" reg_write_addr_ex [4:0] $end
$var wire 1 H" reg_we_wb $end
$var wire 1 I" reg_we_mem $end
$var wire 1 J" reg_we_id $end
$var wire 1 K" reg_we_cond_ex $end
$var wire 32 L" pc_if [31:0] $end
$var wire 32 M" pc_id [31:0] $end
$var wire 1 N" movz_id $end
$var wire 1 O" movz_ex $end
$var wire 1 P" movn_id $end
$var wire 1 Q" movn_ex $end
$var wire 4 R" mem_write_en [3:0] $end
$var wire 32 S" mem_write_data_id [31:0] $end
$var wire 32 T" mem_write_data_ex [31:0] $end
$var wire 32 U" mem_write_data [31:0] $end
$var wire 1 V" mem_we_id $end
$var wire 1 W" mem_we_ex $end
$var wire 1 X" mem_signextend_mem $end
$var wire 1 Y" mem_signextend_id $end
$var wire 1 Z" mem_signextend_ex $end
$var wire 1 [" mem_sc_id $end
$var wire 1 \" mem_sc_ex $end
$var wire 1 ]" mem_read_mem $end
$var wire 1 ^" mem_read_id $end
$var wire 1 _" mem_read_ex $end
$var wire 8 `" mem_read_data_byte_select [7:0] $end
$var wire 32 a" mem_read_data_byte_extend [31:0] $end
$var wire 32 b" mem_out [31:0] $end
$var wire 1 c" mem_byte_mem $end
$var wire 1 d" mem_byte_id $end
$var wire 1 e" mem_byte_ex $end
$var wire 1 f" mem_atomic_ex $end
$var wire 1 g" jump_target_id $end
$var wire 1 h" jump_branch_id $end
$var wire 32 i" jr_pc_id [31:0] $end
$var wire 32 j" instr_sav [31:0] $end
$var wire 30 k" instr_number_id [29:0] $end
$var wire 32 l" instr_id [31:0] $end
$var wire 32 m" alu_result_mem [31:0] $end
$var wire 32 n" alu_result_ex [31:0] $end
$var wire 1 o" alu_overflow $end
$var wire 4 p" alu_opcode_id [3:0] $end
$var wire 4 q" alu_opcode_ex [3:0] $end
$var wire 1 r" alu_op_y_zero_ex $end
$var wire 32 s" alu_op_y_id [31:0] $end
$var wire 32 t" alu_op_y_ex [31:0] $end
$var wire 32 u" alu_op_x_id [31:0] $end
$var wire 32 v" alu_op_x_ex [31:0] $end
$scope module alu_op_x_id2ex $end
$var wire 1 9" ar $end
$var wire 1 3 clk $end
$var wire 1 /" en $end
$var wire 1 :" r $end
$var wire 32 w" d [31:0] $end
$var parameter 32 x" WIDTH $end
$var reg 32 y" q [31:0] $end
$upscope $end
$scope module alu_op_y_id2ex $end
$var wire 1 9" ar $end
$var wire 1 3 clk $end
$var wire 1 /" en $end
$var wire 1 :" r $end
$var wire 32 z" d [31:0] $end
$var parameter 32 {" WIDTH $end
$var reg 32 |" q [31:0] $end
$upscope $end
$scope module alu_opcode_id2ex $end
$var wire 1 9" ar $end
$var wire 1 3 clk $end
$var wire 1 /" en $end
$var wire 1 :" r $end
$var wire 4 }" d [3:0] $end
$var parameter 32 ~" WIDTH $end
$var reg 4 !# q [3:0] $end
$upscope $end
$scope module alu_result_ex2mem $end
$var wire 1 3 clk $end
$var wire 32 "# d [31:0] $end
$var wire 1 /" en $end
$var wire 1 9" r $end
$var parameter 32 ## WIDTH $end
$var reg 32 $# q [31:0] $end
$upscope $end
$scope module atomic $end
$var wire 1 9" ar $end
$var wire 1 3 clk $end
$var wire 1 4" d $end
$var wire 1 ." en $end
$var wire 1 :" r $end
$var parameter 32 %# WIDTH $end
$var reg 1 f" q $end
$upscope $end
$scope module d_stage $end
$var wire 1 f" atomic_ex $end
$var wire 1 4" atomic_id $end
$var wire 32 &# instr [31:0] $end
$var wire 1 '# isBGEZAL $end
$var wire 1 (# isBGEZNL $end
$var wire 1 )# isBGTZ $end
$var wire 1 *# isBLEZ $end
$var wire 1 +# isBLTZAL $end
$var wire 1 ,# isBLTZNL $end
$var wire 1 -# isBranchLink $end
$var wire 1 .# isSLL $end
$var wire 1 /# isSLLV $end
$var wire 1 0# isSRL $end
$var wire 1 1# isSRLV $end
$var wire 1 2# isShift $end
$var wire 1 3# isShiftImm $end
$var wire 1 4# isZeroExtImm $end
$var wire 32 5# jr_pc [31:0] $end
$var wire 1 2" jump_reg $end
$var wire 1 g" jump_target $end
$var wire 1 6" mem_sc_mask_id $end
$var wire 32 6# mem_write_data [31:0] $end
$var wire 1 8" reg_we_ex $end
$var wire 32 7# reg_write_data_mem [31:0] $end
$var wire 1 <" stall $end
$var wire 1 8# use_imm $end
$var wire 32 9# shift_amount [31:0] $end
$var wire 5 :# shamt [4:0] $end
$var wire 32 ;# rt_data_in [31:0] $end
$var wire 32 <# rt_data [31:0] $end
$var wire 5 =# rt_addr [4:0] $end
$var wire 1 ># rs_mem_dependency $end
$var wire 32 ?# rs_data_in [31:0] $end
$var wire 32 @# rs_data [31:0] $end
$var wire 5 A# rs_addr [4:0] $end
$var wire 5 B# reg_write_addr_mem [4:0] $end
$var wire 5 C# reg_write_addr_ex [4:0] $end
$var wire 5 D# reg_write_addr [4:0] $end
$var wire 1 I" reg_we_mem $end
$var wire 1 J" reg_we $end
$var wire 1 E# read_from_rt $end
$var wire 1 F# read_from_rs $end
$var wire 5 G# rd_addr [4:0] $end
$var wire 32 H# pc [31:0] $end
$var wire 6 I# op [5:0] $end
$var wire 1 N" movz $end
$var wire 1 P" movn $end
$var wire 1 V" mem_we $end
$var wire 1 Y" mem_signextend $end
$var wire 1 [" mem_sc_id $end
$var wire 1 _" mem_read_ex $end
$var wire 1 ^" mem_read $end
$var wire 1 d" mem_byte $end
$var wire 1 h" jump_branch $end
$var wire 1 J# isLUI $end
$var wire 1 K# isJ $end
$var wire 1 L# isEqual $end
$var wire 1 M# isBNE $end
$var wire 1 N# isBEQ $end
$var wire 1 O# isALUImm $end
$var wire 16 P# immediate [15:0] $end
$var wire 32 Q# imm_zero_extend [31:0] $end
$var wire 32 R# imm_upper [31:0] $end
$var wire 32 S# imm_sign_extend [31:0] $end
$var wire 32 T# imm [31:0] $end
$var wire 6 U# funct [5:0] $end
$var wire 1 V# forward_rt_mem $end
$var wire 1 W# forward_rt_ex $end
$var wire 1 X# forward_rs_mem $end
$var wire 1 Y# forward_rs_ex $end
$var wire 32 Z# alu_result_ex [31:0] $end
$var wire 32 [# alu_op_y [31:0] $end
$var wire 32 \# alu_op_x [31:0] $end
$var reg 4 ]# alu_opcode [3:0] $end
$upscope $end
$scope module if_stage $end
$var wire 1 3 clk $end
$var wire 1 0" en $end
$var wire 26 ^# instr_id [25:0] $end
$var wire 1 g" jump_target $end
$var wire 1 9" rst $end
$var wire 32 _# pc_next [31:0] $end
$var wire 32 `# pc_id_p4 [31:0] $end
$var wire 32 a# pc_id [31:0] $end
$var wire 32 b# pc [31:0] $end
$var wire 32 c# j_addr [31:0] $end
$scope module pc_reg $end
$var wire 1 3 clk $end
$var wire 32 d# d [31:0] $end
$var wire 1 0" en $end
$var wire 1 9" r $end
$var parameter 32 e# WIDTH $end
$var reg 32 f# q [31:0] $end
$upscope $end
$upscope $end
$scope module instr_sav_dff $end
$var wire 1 3 clk $end
$var wire 32 g# d [31:0] $end
$var wire 1 /" en $end
$var wire 1 9" r $end
$var parameter 32 h# WIDTH $end
$var reg 32 i# q [31:0] $end
$upscope $end
$scope module mem_byte_ex2mem $end
$var wire 1 3 clk $end
$var wire 1 /" en $end
$var wire 1 9" r $end
$var wire 1 e" d $end
$var parameter 32 j# WIDTH $end
$var reg 1 c" q $end
$upscope $end
$scope module mem_byte_id2ex $end
$var wire 1 9" ar $end
$var wire 1 3 clk $end
$var wire 1 d" d $end
$var wire 1 /" en $end
$var wire 1 :" r $end
$var parameter 32 k# WIDTH $end
$var reg 1 e" q $end
$upscope $end
$scope module mem_read_ex2mem $end
$var wire 1 3 clk $end
$var wire 1 /" en $end
$var wire 1 9" r $end
$var wire 1 _" d $end
$var parameter 32 l# WIDTH $end
$var reg 1 ]" q $end
$upscope $end
$scope module mem_read_id2ex $end
$var wire 1 9" ar $end
$var wire 1 3 clk $end
$var wire 1 ^" d $end
$var wire 1 /" en $end
$var wire 1 :" r $end
$var parameter 32 m# WIDTH $end
$var reg 1 _" q $end
$upscope $end
$scope module mem_signextend_ex2mem $end
$var wire 1 3 clk $end
$var wire 1 /" en $end
$var wire 1 9" r $end
$var wire 1 Z" d $end
$var parameter 32 n# WIDTH $end
$var reg 1 X" q $end
$upscope $end
$scope module mem_signextend_id2ex $end
$var wire 1 9" ar $end
$var wire 1 3 clk $end
$var wire 1 Y" d $end
$var wire 1 /" en $end
$var wire 1 :" r $end
$var parameter 32 o# WIDTH $end
$var reg 1 Z" q $end
$upscope $end
$scope module mem_we_id2ex $end
$var wire 1 9" ar $end
$var wire 1 3 clk $end
$var wire 1 p# d $end
$var wire 1 /" en $end
$var wire 1 :" r $end
$var parameter 32 q# WIDTH $end
$var reg 1 W" q $end
$upscope $end
$scope module mem_write_data_id2ex $end
$var wire 1 9" ar $end
$var wire 1 3 clk $end
$var wire 32 r# d [31:0] $end
$var wire 1 /" en $end
$var wire 1 :" r $end
$var parameter 32 s# WIDTH $end
$var reg 32 t# q [31:0] $end
$upscope $end
$scope module movn $end
$var wire 1 9" ar $end
$var wire 1 3 clk $end
$var wire 1 P" d $end
$var wire 1 /" en $end
$var wire 1 :" r $end
$var parameter 32 u# WIDTH $end
$var reg 1 Q" q $end
$upscope $end
$scope module movz $end
$var wire 1 9" ar $end
$var wire 1 3 clk $end
$var wire 1 N" d $end
$var wire 1 /" en $end
$var wire 1 :" r $end
$var parameter 32 v# WIDTH $end
$var reg 1 O" q $end
$upscope $end
$scope module pc_if2id $end
$var wire 1 3 clk $end
$var wire 32 w# d [31:0] $end
$var wire 1 0" en $end
$var wire 1 9" r $end
$var parameter 32 x# WIDTH $end
$var reg 32 y# q [31:0] $end
$upscope $end
$scope module reg_we_ex2mem $end
$var wire 1 3 clk $end
$var wire 1 8" d $end
$var wire 1 /" en $end
$var wire 1 9" r $end
$var parameter 32 z# WIDTH $end
$var reg 1 I" q $end
$upscope $end
$scope module reg_we_id2ex $end
$var wire 1 9" ar $end
$var wire 1 3 clk $end
$var wire 1 J" d $end
$var wire 1 /" en $end
$var wire 1 :" r $end
$var parameter 32 {# WIDTH $end
$var reg 1 K" q $end
$upscope $end
$scope module reg_we_mem2wb $end
$var wire 1 3 clk $end
$var wire 1 I" d $end
$var wire 1 /" en $end
$var wire 1 9" r $end
$var parameter 32 |# WIDTH $end
$var reg 1 H" q $end
$upscope $end
$scope module reg_write_addr_ex2mem $end
$var wire 1 3 clk $end
$var wire 1 /" en $end
$var wire 1 9" r $end
$var wire 5 }# d [4:0] $end
$var parameter 32 ~# WIDTH $end
$var reg 5 !$ q [4:0] $end
$upscope $end
$scope module reg_write_addr_id2ex $end
$var wire 1 9" ar $end
$var wire 1 3 clk $end
$var wire 5 "$ d [4:0] $end
$var wire 1 /" en $end
$var wire 1 :" r $end
$var parameter 32 #$ WIDTH $end
$var reg 5 $$ q [4:0] $end
$upscope $end
$scope module reg_write_addr_mem2wb $end
$var wire 1 3 clk $end
$var wire 5 %$ d [4:0] $end
$var wire 1 /" en $end
$var wire 1 9" r $end
$var parameter 32 &$ WIDTH $end
$var reg 5 '$ q [4:0] $end
$upscope $end
$scope module reg_write_data_mem2wb $end
$var wire 1 3 clk $end
$var wire 32 ($ d [31:0] $end
$var wire 1 /" en $end
$var wire 1 9" r $end
$var parameter 32 )$ WIDTH $end
$var reg 32 *$ q [31:0] $end
$upscope $end
$scope module sc $end
$var wire 1 9" ar $end
$var wire 1 3 clk $end
$var wire 1 [" d $end
$var wire 1 /" en $end
$var wire 1 :" r $end
$var parameter 32 +$ WIDTH $end
$var reg 1 \" q $end
$upscope $end
$scope module stall_f_dff $end
$var wire 1 3 clk $end
$var wire 1 <" d $end
$var wire 1 /" en $end
$var wire 1 9" r $end
$var parameter 32 ,$ WIDTH $end
$var reg 1 ;" q $end
$upscope $end
$scope module w_stage $end
$var wire 1 3 clk $end
$var wire 1 /" en $end
$var wire 1 H" reg_we $end
$var wire 5 -$ reg_write_addr [4:0] $end
$var wire 32 .$ reg_write_data [31:0] $end
$var wire 5 /$ rs_addr [4:0] $end
$var wire 5 0$ rt_addr [4:0] $end
$var wire 32 1$ rt_data [31:0] $end
$var wire 32 2$ rs_data [31:0] $end
$upscope $end
$scope module x_stage $end
$var wire 32 3$ alu_op_x [31:0] $end
$var wire 32 4$ alu_op_x_signed [31:0] $end
$var wire 32 5$ alu_op_y [31:0] $end
$var wire 32 6$ alu_op_y_signed [31:0] $end
$var wire 4 7$ alu_opcode [3:0] $end
$var wire 1 8$ y_neg $end
$var wire 1 9$ x_neg $end
$var wire 1 :$ sub_pos_over $end
$var wire 1 ;$ sub_neg_over $end
$var wire 1 <$ sub_check $end
$var wire 1 o" alu_overflow $end
$var wire 1 r" alu_op_y_zero $end
$var wire 1 =$ alu_neg $end
$var wire 1 >$ add_pos_over $end
$var wire 1 ?$ add_neg_over $end
$var wire 1 @$ add_check $end
$var reg 32 A$ alu_result [31:0] $end
$upscope $end
$upscope $end
$scope module mips_local_store $end
$var wire 12 B$ addr [11:0] $end
$var wire 1 3 clk $end
$var wire 32 C$ din [31:0] $end
$var wire 4 D$ we [3:0] $end
$var parameter 32 E$ ADDR_WIDTH $end
$var parameter 32 F$ COL_WIDTH $end
$var parameter 64 G$ DATA_WIDTH $end
$var parameter 32 H$ N_COLS $end
$var parameter 44 I$ RAM_DEPTH $end
$var reg 32 J$ dout [31:0] $end
$scope begin column[0] $end
$var parameter 2 K$ c $end
$upscope $end
$scope begin column[1] $end
$var parameter 2 L$ c $end
$upscope $end
$scope begin column[2] $end
$var parameter 3 M$ c $end
$upscope $end
$scope begin column[3] $end
$var parameter 3 N$ c $end
$upscope $end
$upscope $end
$upscope $end
$upscope $end
$enddefinitions $end
$comment Show the parameter values. $end
$dumpall
b11 N$
b10 M$
b1 L$
b0 K$
b1000000000000 I$
b100 H$
b100000 G$
b1000 F$
b1100 E$
b1 ,$
b1 +$
b100000 )$
b101 &$
b101 #$
b101 ~#
b1 |#
b1 {#
b1 z#
b100000 x#
b1 v#
b1 u#
b100000 s#
b1 q#
b1 o#
b1 n#
b1 m#
b1 l#
b1 k#
b1 j#
b100000 h#
b100000 e#
b1 %#
b100000 ##
b100 ~"
b100000 {"
b100000 x"
b100000 '"
b1100 &"
b1000000000000000 %"
b100000 $"
b1111 #"
b11 d
b10 c
b1 b
b0 a
b1000000000000000 _
b100 ^
b100000 ]
b1000 \
b1111 [
b100000000000000 V
b100000 U
b1110 T
b1000000000000000 O
b100000 N
b1111 M
b1000000000000000 2
b100000 1
b1111 0
$end
#0
$dumpvars
bx J$
b0 D$
b0 C$
b0 B$
b0 A$
0@$
0?$
0>$
0=$
0<$
0;$
0:$
09$
08$
b0 7$
b0 6$
b0 5$
b0 4$
b0 3$
bx 2$
bx 1$
bx 0$
bx /$
b0 .$
b0 -$
b0 *$
b0 ($
b0 '$
b0 %$
b0 $$
bx "$
b0 !$
b0 }#
b0 y#
b0 w#
b0 t#
bx r#
xp#
b0 i#
bx g#
b0 f#
b0xxxxxxxxxxxxxxxxxxxxxxxxxx00 d#
b0xxxxxxxxxxxxxxxxxxxxxxxxxx00 c#
b0 b#
b0 a#
b100 `#
b0xxxxxxxxxxxxxxxxxxxxxxxxxx00 _#
bx ^#
bx ]#
bx \#
bx [#
b0 Z#
0Y#
0X#
0W#
0V#
bx U#
bx T#
bx S#
bx0000000000000000 R#
b0xxxxxxxxxxxxxxxx Q#
bx P#
xO#
xN#
xM#
xL#
xK#
xJ#
bx I#
b0 H#
bx G#
xF#
xE#
bx D#
b0 C#
b0 B#
bx A#
bx @#
bx ?#
0>#
bx =#
bx <#
bx ;#
bx :#
b0xxxxx 9#
x8#
b0 7#
bx 6#
bx 5#
x4#
x3#
x2#
x1#
x0#
x/#
x.#
x-#
x,#
x+#
x*#
x)#
x(#
x'#
bx &#
b0 $#
b0 "#
b0 !#
bx }"
b0 |"
bx z"
b0 y"
bx w"
b0 v"
bx u"
b0 t"
bx s"
1r"
b0 q"
bx p"
0o"
b0 n"
b0 m"
bx l"
b0 k"
b0 j"
bx i"
xh"
xg"
0f"
0e"
xd"
0c"
bx b"
b0xxxxxxxx a"
bx `"
0_"
x^"
0]"
0\"
x["
0Z"
xY"
0X"
0W"
xV"
b0 U"
b0 T"
bx S"
b0 R"
0Q"
xP"
0O"
xN"
b0 M"
b0 L"
0K"
xJ"
0I"
0H"
b0 G"
bx F"
b0 E"
b0 D"
b0 C"
b0 B"
bx A"
bx @"
bx ?"
bx >"
b0 ="
0<"
0;"
0:"
09"
08"
b0 7"
06"
bx 5"
04"
b0 3"
02"
bx 1"
10"
1/"
x."
b0 -"
bx ,"
bx +"
x*"
x)"
bx ("
0""
0!"
0~
0}
b0 |
b0 {
bx z
b0 y
bx x
0w
b0 v
b0 u
b0 t
bx s
b0 r
b0 q
b0 p
b0 o
b0 n
b0 m
b0 l
bx k
bx j
bx i
bx h
bx g
b0xxxxxxxxxxxxxxxxxxxx10 f
1e
bx `
b0 Z
b0 Y
b0 X
bx W
0S
b0 R
b0 Q
bx P
0L
b0 K
b0 J
b1 I
b0 H
b1 G
b1 F
b0 E
bx D
bx C
b1 B
b0xxxxxxxxxxxxxxxxxxxx10 A
b11101000110010101110011011101000111001100101111011100110111001001100001001011110111010001100101011100110111010000101110011100100110010101110011011101010110110001110100 @
0?
b0 >
bx =
b0 <
b100000000000000000 ;
b1111101000 :
b111010001100101011100110111010001110011001011110111001101110010011000010010111101100010011101010110100101101100011001000010111101100001011100000111000000101110011010000110010101111000 9
bx 8
bx 7
bx 6
b11101000110010101110011011101000111001100101111011100110111001001100001001011110111001101110100011100100110010101100001011011010111011101100001011101100110010100101110011101100110001101100100 5
b0 4
03
bx /
b0 .
b0 -
bx ,
b0 +
b0 *
bx )
bx (
bx '
b0 &
b0 %
b0 $
b0 #
b0 "
b0 !
$end
#5000
b0 9#
b0 u"
b0 w"
b0 \#
02#
b0 i"
b0 5#
b0 @#
04#
0-#
03#
0h"
b10000000000000100000000000000000 s"
b10000000000000100000000000000000 z"
b10000000000000100000000000000000 [#
1J"
0p#
0."
b0 @"
b0 ?#
b0 2$
0(#
0'#
0)#
0*#
0,#
0+#
b10000 F"
b10000 D#
b10000 "$
0.#
00#
0/#
01#
b1100 p"
b1100 }"
b1100 ]#
b10000000000000100000000000000000 T#
b100 _#
b100 d#
0N#
0M#
0g"
0K#
18#
0F#
0E#
1J#
0O#
0V"
0^"
0d"
1Y"
0["
b1111 I#
b0 A"
b0 A#
b0 /$
b10000 ?"
b10000 =#
b10000 0$
b10000 G#
b0 :#
0P"
0N"
b10 U#
b1000000000000010 Q#
b11111111111111111000000000000010 S#
b10000000000000100000000000000000 R#
b1000000000000010 P#
b10000100000000000001000 c#
b100001000000000000010 ^#
b111100000100001000000000000010 l"
b111100000100001000000000000010 &#
b111100000100001000000000000010 ,
b111100000100001000000000000010 W
b111100000100001000000000000010 g
b111100000100001000000000000010 1"
b111100000100001000000000000010 g#
b0 '
b0 k
b0 ,"
b0 (
b0 j
b0 +"
0*"
0)"
b0 ("
13
#10000
03
#15000
13
#20000
19"
03
b0xxxxxxxxxxxxxxxxxxxx00 A
b0xxxxxxxxxxxxxxxxxxxx00 f
1?
#25000
0e
bx $
bx o
bx %
bx Y
bx #
bx n
1:$
1=$
b1 Q
18"
bx p
bx U"
bx C$
1~
b10000000000000100000000000000000 {
b10000000000000100000000000000000 3"
b10000000000000100000000000000000 -"
b10000000000000100000000000000000 "#
b10000000000000100000000000000000 n"
b10000000000000100000000000000000 Z#
b10000000000000100000000000000000 A$
18$
b1000 _#
b1000 d#
b1 +
b1 |
1K"
b10000 G"
b10000 C#
b10000 }#
b10000 $$
1Z"
bx T"
bx t#
b1100 q"
b1100 !#
b1100 7$
b10000000000000100000000000000000 6$
0r"
b10000000000000100000000000000000 t"
b10000000000000100000000000000000 |"
b10000000000000100000000000000000 5$
b111100000100001000000000000010 j"
b111100000100001000000000000010 i#
b100 y
b100 7"
b100 L"
b100 b#
b100 f#
b100 w#
13
#30000
03
b1111100111 4
b0xxxxxxxxxxxxxxxxxxxx01 A
b0xxxxxxxxxxxxxxxxxxxx01 f
#35000
14#
b1 s"
b1 z"
b1 [#
b10001 F"
b10001 D#
b10001 "$
b11 p"
b11 }"
b11 ]#
b1 T#
1F#
0J#
1O#
b1101 I#
b10001 ?"
b10001 =#
b10001 0$
b0 G#
b1 U#
b1 Q#
b1 S#
b10000000000000000 R#
b1 P#
b10001000000000000000100 c#
b100010000000000000001 ^#
b10 Q
b110100000100010000000000000001 l"
b110100000100010000000000000001 &#
b1100 _#
b1100 d#
b10 +
b10 |
b1 k"
b10000000000000100000000000000000 C"
b10000000000000100000000000000000 7#
b10000000000000100000000000000000 ($
bx a"
b110100000100010000000000000001 ,
b110100000100010000000000000001 W
b110100000100010000000000000001 g
b110100000100010000000000000001 1"
b110100000100010000000000000001 g#
b1000 y
b1000 7"
b1000 L"
b1000 b#
b1000 f#
b1000 w#
b1000 `#
b100 M"
b100 H#
b100 a#
b100 y#
b10000000000000100000000000000000 m"
b10000000000000100000000000000000 $#
1X"
b10000 E"
b10000 B#
b10000 !$
b10000 %$
1I"
13
#40000
03
b1111100110 4
#45000
04#
b11011110101011110000000000000000 s"
b11011110101011110000000000000000 z"
b11011110101011110000000000000000 [#
b11011110101011110000000000000000 T#
b1000 F"
b1000 D#
b1000 "$
b1100 p"
b1100 }"
b1100 ]#
1e
0F#
1J#
0E#
0O#
b1111 I#
b1000 ?"
b1000 =#
b1000 0$
b11011 G#
b11010 :#
b101111 U#
b1101111010101111 Q#
b11111111111111111101111010101111 S#
b11011110101011110000000000000000 R#
b1101111010101111 P#
b1000110111101010111100 c#
b10001101111010101111 ^#
0=$
0>$
b11 Q
b111100000010001101111010101111 l"
b111100000010001101111010101111 &#
0!"
0~
b1 {
b1 3"
b1 -"
b1 "#
b1 n"
b1 Z#
b1 A$
0:$
08$
b10 k"
b10000 _#
b10000 d#
b11 +
b11 |
b111100000010001101111010101111 ,
b111100000010001101111010101111 W
b111100000010001101111010101111 g
b111100000010001101111010101111 1"
b111100000010001101111010101111 g#
1H"
b10000 D"
b10000 '$
b10000 -$
b10000000000000100000000000000000 B"
b10000000000000100000000000000000 *$
b10000000000000100000000000000000 .$
b10001 G"
b10001 C#
b10001 }#
b10001 $$
b11 q"
b11 !#
b11 7$
b1 6$
b1 t"
b1 |"
b1 5$
b110100000100010000000000000001 j"
b110100000100010000000000000001 i#
b1100 `#
b1000 M"
b1000 H#
b1000 a#
b1000 y#
b1100 y
b1100 7"
b1100 L"
b1100 b#
b1100 f#
b1100 w#
13
#50000
03
b1111100101 4
